hardware/pipeline/sim/proc.vcd
$date
	Tue Feb 24 21:27:37 2026
$end
$version
	Icarus Verilog
$end
$timescale
	1s
$end
$scope module proc $end
$var reg 64 ! f_pc [63:0] $end
$upscope $end
$scope module proc $end
$var wire 64 " f_predPC [63:0] $end
$upscope $end
$scope module proc $end
$var wire 64 # F_predPC [63:0] $end
$upscope $end
$scope module proc $end
$var wire 2 $ f_stat [1:0] $end
$upscope $end
$scope module proc $end
$var wire 4 % f_icode [3:0] $end
$upscope $end
$scope module proc $end
$var wire 4 & f_ifun [3:0] $end
$upscope $end
$scope module proc $end
$var wire 1 ' instr_valid $end
$upscope $end
$scope module proc $end
$var wire 1 ( imem_error $end
$upscope $end
$scope module proc $end
$var wire 2 ) D_stat [1:0] $end
$upscope $end
$scope module proc $end
$var wire 64 * D_pc [63:0] $end
$upscope $end
$scope module proc $end
$var wire 4 + D_icode [3:0] $end
$upscope $end
$scope module proc $end
$var wire 4 , D_ifun [3:0] $end
$upscope $end
$scope module proc $end
$var wire 2 - E_stat [1:0] $end
$upscope $end
$scope module proc $end
$var wire 64 . E_pc [63:0] $end
$upscope $end
$scope module proc $end
$var wire 4 / E_icode [3:0] $end
$upscope $end
$scope module proc $end
$var wire 4 0 E_ifun [3:0] $end
$upscope $end
$scope module proc $end
$var wire 1 1 e_Cnd $end
$upscope $end
$scope module proc $end
$var wire 2 2 M_stat [1:0] $end
$upscope $end
$scope module proc $end
$var wire 64 3 M_pc [63:0] $end
$upscope $end
$scope module proc $end
$var wire 4 4 M_icode [3:0] $end
$upscope $end
$scope module proc $end
$var wire 4 5 M_ifun [3:0] $end
$upscope $end
$scope module proc $end
$var wire 1 6 M_Cnd $end
$upscope $end
$scope module proc $end
$var wire 2 7 m_stat [1:0] $end
$upscope $end
$scope module proc $end
$var wire 2 8 W_stat [1:0] $end
$upscope $end
$scope module proc $end
$var wire 64 9 W_pc [63:0] $end
$upscope $end
$scope module proc $end
$var wire 4 : W_icode [3:0] $end
$upscope $end
$scope module proc $end
$var wire 3 ; cc [2:0] $end
$upscope $end
$scope module proc $end
$var wire 1 < set_cc $end
$upscope $end
$scope module proc $end
$var wire 3 = new_cc [2:0] $end
$upscope $end
$scope module proc $end
$var reg 1 > F_stall $end
$upscope $end
$scope module proc $end
$var reg 1 ? F_bubble $end
$upscope $end
$scope module proc $end
$var reg 1 @ D_stall $end
$upscope $end
$scope module proc $end
$var reg 1 A D_bubble $end
$upscope $end
$scope module proc $end
$var reg 1 B E_stall $end
$upscope $end
$scope module proc $end
$var reg 1 C E_bubble $end
$upscope $end
$scope module proc $end
$var reg 1 D M_stall $end
$upscope $end
$scope module proc $end
$var reg 1 E M_bubble $end
$upscope $end
$scope module proc $end
$var reg 1 F W_stall $end
$upscope $end
$scope module proc $end
$var reg 1 G W_bubble $end
$upscope $end
$scope module proc $end
$var reg 1 H clock $end
$upscope $end
$scope module proc $end
$var wire 64 I rax [63:0] $end
$upscope $end
$scope module proc $end
$var wire 64 J rcx [63:0] $end
$upscope $end
$scope module proc $end
$var wire 64 K rdx [63:0] $end
$upscope $end
$scope module proc $end
$var wire 64 L rbx [63:0] $end
$upscope $end
$scope module proc $end
$var wire 64 M rsp [63:0] $end
$upscope $end
$scope module proc $end
$var wire 64 N rbp [63:0] $end
$upscope $end
$scope module proc $end
$var wire 64 O rsi [63:0] $end
$upscope $end
$scope module proc $end
$var wire 64 P rdi [63:0] $end
$upscope $end
$scope module proc $end
$var wire 64 Q r8 [63:0] $end
$upscope $end
$scope module proc $end
$var wire 64 R r9 [63:0] $end
$upscope $end
$scope module proc $end
$var wire 64 S r10 [63:0] $end
$upscope $end
$scope module proc $end
$var wire 64 T r11 [63:0] $end
$upscope $end
$scope module proc $end
$var wire 64 U r12 [63:0] $end
$upscope $end
$scope module proc $end
$var wire 64 V r13 [63:0] $end
$upscope $end
$scope module proc $end
$var wire 64 W r14 [63:0] $end
$upscope $end
$enddefinitions $end
$comment Show the parameter values. $end
$dumpall
$end
#0
$dumpvars
bx W
bx V
bx U
bx T
bx S
bx R
bx Q
bx P
bx O
bx N
bx M
bx L
bx K
bx J
bx I
1H
0G
0F
0E
0D
0C
0B
0A
0@
0?
0>
b0 =
0<
bx ;
bx :
bx 9
bx 8
bx 7
x6
bx 5
bx 4
bx 3
bx 2
01
bx 0
bx /
bx .
bx -
bx ,
bx +
bx *
bx )
0(
1'
b0 &
b11 %
b0 $
bx #
b1010000 "
b0 !
$end
#10
0H
#20
b10100000 "
b1010000 !
06
b0 ,
b11 +
b0 *
b0 )
b1010000 #
1H
#30
0H
#40
b10110000 "
b110 %
b10100000 !
b10100000 #
b1010000 *
b0 -
b0 .
b11 /
b0 0
1H
#50
0H
#60
b100000000 "
b11 %
b10110000 !
b0 5
b11 4
b0 3
b0 7
b0 2
b1010000 .
b110 +
b10100000 *
b10110000 #
1H
#70
0H
#80
b100010000 "
b110 %
1<
b100000000 !
b100000000 #
b10110000 *
b11 +
b10100000 .
b110 /
b1010000 3
b0 8
b0 9
b11 :
1H
#90
0H
#100
b101100000 "
b11 %
b100010000 !
b0 ;
b0 I
b1010000 9
b110 4
b10100000 3
b11 /
b10110000 .
b110 +
b100000000 *
b100010000 #
1H
#110
0H
#120
b101110000 "
b1 &
b110 %
b101100000 !
b101100000 #
b100010000 *
b11 +
b100000000 .
b110 /
b10110000 3
b11 4
b10100000 9
b110 :
b1 J
1H
#130
0H
#140
b10100000 "
b101 &
b111 %
b101110000 !
b1 I
b11 :
b10110000 9
b110 4
b100000000 3
b11 /
b100010000 .
b1 ,
b110 +
b101100000 *
b101110000 #
1H
#150
0H
#160
b10110000 "
b0 &
b110 %
b0 =
b10100000 !
b10100000 #
b101110000 *
b111 +
b101 ,
b101100000 .
b110 /
b1 0
b100010000 3
b11 4
b100000000 9
b110 :
b1 K
1H
#170
0H
#180
b100000000 "
b11 %
b10110000 !
11
0C
0A
b10 J
b11 :
b100010000 9
b1 5
b110 4
b101100000 3
b101 0
b111 /
b101110000 .
b0 ,
b110 +
b10100000 *
b10110000 #
1H
#190
0H
#200
b100010000 "
b110 %
b100000000 !
b100000000 #
b10110000 *
b11 +
b10100000 .
b110 /
b0 0
b101110000 3
b111 4
b101 5
16
b101100000 9
b110 :
b1100100 K
1H
#210
0H
#220
b101100000 "
b11 %
b100010000 !
b1100010 K
b111 :
b101110000 9
b0 5
b110 4
b10100000 3
b11 /
b10110000 .
b110 +
b100000000 *
b100010000 #
1H
#230
0H
#240
b101110000 "
b1 &
b110 %
b101100000 !
b101100000 #
b100010000 *
b11 +
b100000000 .
b110 /
b10110000 3
b11 4
b10100000 9
b110 :
1H
#250
0H
#260
b10100000 "
b101 &
b111 %
b101110000 !
b11 I
b11 :
b10110000 9
b110 4
b100000000 3
b11 /
b100010000 .
b1 ,
b110 +
b101100000 *
b101110000 #
1H
#270
0H
#280
b10110000 "
b0 &
b110 %
b0 =
b10100000 !
b10100000 #
b101110000 *
b111 +
b101 ,
b101100000 .
b110 /
b1 0
b100010000 3
b11 4
b100000000 9
b110 :
b1 K
1H
#290
0H
#300
b100000000 "
b11 %
b10110000 !
b11 J
b11 :
b100010000 9
b1 5
b110 4
b101100000 3
b101 0
b111 /
b101110000 .
b0 ,
b110 +
b10100000 *
b10110000 #
1H
#310
0H
#320
b100010000 "
b110 %
b100000000 !
b100000000 #
b10110000 *
b11 +
b10100000 .
b110 /
b0 0
b101110000 3
b111 4
b101 5
b101100000 9
b110 :
b1100100 K
1H
#330
0H
#340
b101100000 "
b11 %
b100010000 !
b1100001 K
b111 :
b101110000 9
b0 5
b110 4
b10100000 3
b11 /
b10110000 .
b110 +
b100000000 *
b100010000 #
1H
#350
0H
#360
b101110000 "
b1 &
b110 %
b101100000 !
b101100000 #
b100010000 *
b11 +
b100000000 .
b110 /
b10110000 3
b11 4
b10100000 9
b110 :
1H
#370
0H
#380
b10100000 "
b101 &
b111 %
b101110000 !
b110 I
b11 :
b10110000 9
b110 4
b100000000 3
b11 /
b100010000 .
b1 ,
b110 +
b101100000 *
b101110000 #
1H
#390
0H
#400
b10110000 "
b0 &
b110 %
b0 =
b10100000 !
b10100000 #
b101110000 *
b111 +
b101 ,
b101100000 .
b110 /
b1 0
b100010000 3
b11 4
b100000000 9
b110 :
b1 K
1H
#410
0H
#420
b100000000 "
b11 %
b10110000 !
b100 J
b11 :
b100010000 9
b1 5
b110 4
b101100000 3
b101 0
b111 /
b101110000 .
b0 ,
b110 +
b10100000 *
b10110000 #
1H
#430
0H
#440
b100010000 "
b110 %
b100000000 !
b100000000 #
b10110000 *
b11 +
b10100000 .
b110 /
b0 0
b101110000 3
b111 4
b101 5
b101100000 9
b110 :
b1100100 K
1H
#450
0H
#460
b101100000 "
b11 %
b100010000 !
b1100000 K
b111 :
b101110000 9
b0 5
b110 4
b10100000 3
b11 /
b10110000 .
b110 +
b100000000 *
b100010000 #
1H
#470
0H
#480
b101110000 "
b1 &
b110 %
b101100000 !
b101100000 #
b100010000 *
b11 +
b100000000 .
b110 /
b10110000 3
b11 4
b10100000 9
b110 :
1H
#490
0H
#500
b10100000 "
b101 &
b111 %
b101110000 !
b1010 I
b11 :
b10110000 9
b110 4
b100000000 3
b11 /
b100010000 .
b1 ,
b110 +
b101100000 *
b101110000 #
1H
#510
0H
#520
b10110000 "
b0 &
b110 %
b0 =
b10100000 !
b10100000 #
b101110000 *
b111 +
b101 ,
b101100000 .
b110 /
b1 0
b100010000 3
b11 4
b100000000 9
b110 :
b1 K
1H
#530
0H
#540
b100000000 "
b11 %
b10110000 !
b101 J
b11 :
b100010000 9
b1 5
b110 4
b101100000 3
b101 0
b111 /
b101110000 .
b0 ,
b110 +
b10100000 *
b10110000 #
1H
#550
0H
#560
b100010000 "
b110 %
b100000000 !
b100000000 #
b10110000 *
b11 +
b10100000 .
b110 /
b0 0
b101110000 3
b111 4
b101 5
b101100000 9
b110 :
b1100100 K
1H
#570
0H
#580
b101100000 "
b11 %
b100010000 !
b1011111 K
b111 :
b101110000 9
b0 5
b110 4
b10100000 3
b11 /
b10110000 .
b110 +
b100000000 *
b100010000 #
1H
#590
0H
#600
b101110000 "
b1 &
b110 %
b101100000 !
b101100000 #
b100010000 *
b11 +
b100000000 .
b110 /
b10110000 3
b11 4
b10100000 9
b110 :
1H
#610
0H
#620
b10100000 "
b101 &
b111 %
b101110000 !
b1111 I
b11 :
b10110000 9
b110 4
b100000000 3
b11 /
b100010000 .
b1 ,
b110 +
b101100000 *
b101110000 #
1H
#630
0H
#640
b10110000 "
b0 &
b110 %
b0 =
b10100000 !
b10100000 #
b101110000 *
b111 +
b101 ,
b101100000 .
b110 /
b1 0
b100010000 3
b11 4
b100000000 9
b110 :
b1 K
1H
#650
0H
#660
b100000000 "
b11 %
b10110000 !
b110 J
b11 :
b100010000 9
b1 5
b110 4
b101100000 3
b101 0
b111 /
b101110000 .
b0 ,
b110 +
b10100000 *
b10110000 #
1H
#670
0H
#680
b100010000 "
b110 %
b100000000 !
b100000000 #
b10110000 *
b11 +
b10100000 .
b110 /
b0 0
b101110000 3
b111 4
b101 5
b101100000 9
b110 :
b1100100 K
1H
#690
0H
#700
b101100000 "
b11 %
b100010000 !
b1011110 K
b111 :
b101110000 9
b0 5
b110 4
b10100000 3
b11 /
b10110000 .
b110 +
b100000000 *
b100010000 #
1H
#710
0H
#720
b101110000 "
b1 &
b110 %
b101100000 !
b101100000 #
b100010000 *
b11 +
b100000000 .
b110 /
b10110000 3
b11 4
b10100000 9
b110 :
1H
#730
0H
#740
b10100000 "
b101 &
b111 %
b101110000 !
b10101 I
b11 :
b10110000 9
b110 4
b100000000 3
b11 /
b100010000 .
b1 ,
b110 +
b101100000 *
b101110000 #
1H
#750
0H
#760
b10110000 "
b0 &
b110 %
b0 =
b10100000 !
b10100000 #
b101110000 *
b111 +
b101 ,
b101100000 .
b110 /
b1 0
b100010000 3
b11 4
b100000000 9
b110 :
b1 K
1H
#770
0H
#780
b100000000 "
b11 %
b10110000 !
b111 J
b11 :
b100010000 9
b1 5
b110 4
b101100000 3
b101 0
b111 /
b101110000 .
b0 ,
b110 +
b10100000 *
b10110000 #
1H
#790
0H
#800
b100010000 "
b110 %
b100000000 !
b100000000 #
b10110000 *
b11 +
b10100000 .
b110 /
b0 0
b101110000 3
b111 4
b101 5
b101100000 9
b110 :
b1100100 K
1H
#810
0H
#820
b101100000 "
b11 %
b100010000 !
b1011101 K
b111 :
b101110000 9
b0 5
b110 4
b10100000 3
b11 /
b10110000 .
b110 +
b100000000 *
b100010000 #
1H
#830
0H
#840
b101110000 "
b1 &
b110 %
b101100000 !
b101100000 #
b100010000 *
b11 +
b100000000 .
b110 /
b10110000 3
b11 4
b10100000 9
b110 :
1H
#850
0H
#860
b10100000 "
b101 &
b111 %
b101110000 !
b11100 I
b11 :
b10110000 9
b110 4
b100000000 3
b11 /
b100010000 .
b1 ,
b110 +
b101100000 *
b101110000 #
1H
#870
0H
#880
b10110000 "
b0 &
b110 %
b0 =
b10100000 !
b10100000 #
b101110000 *
b111 +
b101 ,
b101100000 .
b110 /
b1 0
b100010000 3
b11 4
b100000000 9
b110 :
b1 K
1H
#890
0H
#900
b100000000 "
b11 %
b10110000 !
b1000 J
b11 :
b100010000 9
b1 5
b110 4
b101100000 3
b101 0
b111 /
b101110000 .
b0 ,
b110 +
b10100000 *
b10110000 #
1H
#910
0H
#920
b100010000 "
b110 %
b100000000 !
b100000000 #
b10110000 *
b11 +
b10100000 .
b110 /
b0 0
b101110000 3
b111 4
b101 5
b101100000 9
b110 :
b1100100 K
1H
#930
0H
#940
b101100000 "
b11 %
b100010000 !
b1011100 K
b111 :
b101110000 9
b0 5
b110 4
b10100000 3
b11 /
b10110000 .
b110 +
b100000000 *
b100010000 #
1H
#950
0H
#960
b101110000 "
b1 &
b110 %
b101100000 !
b101100000 #
b100010000 *
b11 +
b100000000 .
b110 /
b10110000 3
b11 4
b10100000 9
b110 :
1H
#970
0H
#980
b10100000 "
b101 &
b111 %
b101110000 !
b100100 I
b11 :
b10110000 9
b110 4
b100000000 3
b11 /
b100010000 .
b1 ,
b110 +
b101100000 *
b101110000 #
1H
#990
0H
#1000
b10110000 "
b0 &
b110 %
b0 =
b10100000 !
b10100000 #
b101110000 *
b111 +
b101 ,
b101100000 .
b110 /
b1 0
b100010000 3
b11 4
b100000000 9
b110 :
b1 K
1H
#1010
0H
#1020
b100000000 "
b11 %
b10110000 !
b1001 J
b11 :
b100010000 9
b1 5
b110 4
b101100000 3
b101 0
b111 /
b101110000 .
b0 ,
b110 +
b10100000 *
b10110000 #
1H
#1030
0H
#1040
b100010000 "
b110 %
b100000000 !
b100000000 #
b10110000 *
b11 +
b10100000 .
b110 /
b0 0
b101110000 3
b111 4
b101 5
b101100000 9
b110 :
b1100100 K
1H
#1050
0H
#1060
b101100000 "
b11 %
b100010000 !
b1011011 K
b111 :
b101110000 9
b0 5
b110 4
b10100000 3
b11 /
b10110000 .
b110 +
b100000000 *
b100010000 #
1H
#1070
0H
#1080
b101110000 "
b1 &
b110 %
b101100000 !
b101100000 #
b100010000 *
b11 +
b100000000 .
b110 /
b10110000 3
b11 4
b10100000 9
b110 :
1H
#1090
0H
#1100
b10100000 "
b101 &
b111 %
b101110000 !
b101101 I
b11 :
b10110000 9
b110 4
b100000000 3
b11 /
b100010000 .
b1 ,
b110 +
b101100000 *
b101110000 #
1H
#1110
0H
#1120
b10110000 "
b0 &
b110 %
b0 =
b10100000 !
b10100000 #
b101110000 *
b111 +
b101 ,
b101100000 .
b110 /
b1 0
b100010000 3
b11 4
b100000000 9
b110 :
b1 K
1H
#1130
0H
#1140
b100000000 "
b11 %
b10110000 !
b1010 J
b11 :
b100010000 9
b1 5
b110 4
b101100000 3
b101 0
b111 /
b101110000 .
b0 ,
b110 +
b10100000 *
b10110000 #
1H
#1150
0H
#1160
b100010000 "
b110 %
b100000000 !
b100000000 #
b10110000 *
b11 +
b10100000 .
b110 /
b0 0
b101110000 3
b111 4
b101 5
b101100000 9
b110 :
b1100100 K
1H
#1170
0H
#1180
b101100000 "
b11 %
b100010000 !
b1011010 K
b111 :
b101110000 9
b0 5
b110 4
b10100000 3
b11 /
b10110000 .
b110 +
b100000000 *
b100010000 #
1H
#1190
0H
#1200
b101110000 "
b1 &
b110 %
b101100000 !
b101100000 #
b100010000 *
b11 +
b100000000 .
b110 /
b10110000 3
b11 4
b10100000 9
b110 :
1H
#1210
0H
#1220
b10100000 "
b101 &
b111 %
b101110000 !
b110111 I
b11 :
b10110000 9
b110 4
b100000000 3
b11 /
b100010000 .
b1 ,
b110 +
b101100000 *
b101110000 #
1H
#1230
0H
#1240
b10110000 "
b0 &
b110 %
b0 =
b10100000 !
b10100000 #
b101110000 *
b111 +
b101 ,
b101100000 .
b110 /
b1 0
b100010000 3
b11 4
b100000000 9
b110 :
b1 K
1H
#1250
0H
#1260
b100000000 "
b11 %
b10110000 !
b1011 J
b11 :
b100010000 9
b1 5
b110 4
b101100000 3
b101 0
b111 /
b101110000 .
b0 ,
b110 +
b10100000 *
b10110000 #
1H
#1270
0H
#1280
b100010000 "
b110 %
b100000000 !
b100000000 #
b10110000 *
b11 +
b10100000 .
b110 /
b0 0
b101110000 3
b111 4
b101 5
b101100000 9
b110 :
b1100100 K
1H
#1290
0H
#1300
b101100000 "
b11 %
b100010000 !
b1011001 K
b111 :
b101110000 9
b0 5
b110 4
b10100000 3
b11 /
b10110000 .
b110 +
b100000000 *
b100010000 #
1H
#1310
0H
#1320
b101110000 "
b1 &
b110 %
b101100000 !
b101100000 #
b100010000 *
b11 +
b100000000 .
b110 /
b10110000 3
b11 4
b10100000 9
b110 :
1H
#1330
0H
#1340
b10100000 "
b101 &
b111 %
b101110000 !
b1000010 I
b11 :
b10110000 9
b110 4
b100000000 3
b11 /
b100010000 .
b1 ,
b110 +
b101100000 *
b101110000 #
1H
#1350
0H
#1360
b10110000 "
b0 &
b110 %
b0 =
b10100000 !
b10100000 #
b101110000 *
b111 +
b101 ,
b101100000 .
b110 /
b1 0
b100010000 3
b11 4
b100000000 9
b110 :
b1 K
1H
#1370
0H
#1380
b100000000 "
b11 %
b10110000 !
b1100 J
b11 :
b100010000 9
b1 5
b110 4
b101100000 3
b101 0
b111 /
b101110000 .
b0 ,
b110 +
b10100000 *
b10110000 #
1H
#1390
0H
#1400
b100010000 "
b110 %
b100000000 !
b100000000 #
b10110000 *
b11 +
b10100000 .
b110 /
b0 0
b101110000 3
b111 4
b101 5
b101100000 9
b110 :
b1100100 K
1H
#1410
0H
#1420
b101100000 "
b11 %
b100010000 !
b1011000 K
b111 :
b101110000 9
b0 5
b110 4
b10100000 3
b11 /
b10110000 .
b110 +
b100000000 *
b100010000 #
1H
#1430
0H
#1440
b101110000 "
b1 &
b110 %
b101100000 !
b101100000 #
b100010000 *
b11 +
b100000000 .
b110 /
b10110000 3
b11 4
b10100000 9
b110 :
1H
#1450
0H
#1460
b10100000 "
b101 &
b111 %
b101110000 !
b1001110 I
b11 :
b10110000 9
b110 4
b100000000 3
b11 /
b100010000 .
b1 ,
b110 +
b101100000 *
b101110000 #
1H
#1470
0H
#1480
b10110000 "
b0 &
b110 %
b0 =
b10100000 !
b10100000 #
b101110000 *
b111 +
b101 ,
b101100000 .
b110 /
b1 0
b100010000 3
b11 4
b100000000 9
b110 :
b1 K
1H
#1490
0H
#1500
b100000000 "
b11 %
b10110000 !
b1101 J
b11 :
b100010000 9
b1 5
b110 4
b101100000 3
b101 0
b111 /
b101110000 .
b0 ,
b110 +
b10100000 *
b10110000 #
1H
#1510
0H
#1520
b100010000 "
b110 %
b100000000 !
b100000000 #
b10110000 *
b11 +
b10100000 .
b110 /
b0 0
b101110000 3
b111 4
b101 5
b101100000 9
b110 :
b1100100 K
1H
#1530
0H
#1540
b101100000 "
b11 %
b100010000 !
b1010111 K
b111 :
b101110000 9
b0 5
b110 4
b10100000 3
b11 /
b10110000 .
b110 +
b100000000 *
b100010000 #
1H
#1550
0H
#1560
b101110000 "
b1 &
b110 %
b101100000 !
b101100000 #
b100010000 *
b11 +
b100000000 .
b110 /
b10110000 3
b11 4
b10100000 9
b110 :
1H
#1570
0H
#1580
b10100000 "
b101 &
b111 %
b101110000 !
b1011011 I
b11 :
b10110000 9
b110 4
b100000000 3
b11 /
b100010000 .
b1 ,
b110 +
b101100000 *
b101110000 #
1H
#1590
0H
#1600
b10110000 "
b0 &
b110 %
b0 =
b10100000 !
b10100000 #
b101110000 *
b111 +
b101 ,
b101100000 .
b110 /
b1 0
b100010000 3
b11 4
b100000000 9
b110 :
b1 K
1H
#1610
0H
#1620
b100000000 "
b11 %
b10110000 !
b1110 J
b11 :
b100010000 9
b1 5
b110 4
b101100000 3
b101 0
b111 /
b101110000 .
b0 ,
b110 +
b10100000 *
b10110000 #
1H
#1630
0H
#1640
b100010000 "
b110 %
b100000000 !
b100000000 #
b10110000 *
b11 +
b10100000 .
b110 /
b0 0
b101110000 3
b111 4
b101 5
b101100000 9
b110 :
b1100100 K
1H
#1650
0H
#1660
b101100000 "
b11 %
b100010000 !
b1010110 K
b111 :
b101110000 9
b0 5
b110 4
b10100000 3
b11 /
b10110000 .
b110 +
b100000000 *
b100010000 #
1H
#1670
0H
#1680
b101110000 "
b1 &
b110 %
b101100000 !
b101100000 #
b100010000 *
b11 +
b100000000 .
b110 /
b10110000 3
b11 4
b10100000 9
b110 :
1H
#1690
0H
#1700
b10100000 "
b101 &
b111 %
b101110000 !
b1101001 I
b11 :
b10110000 9
b110 4
b100000000 3
b11 /
b100010000 .
b1 ,
b110 +
b101100000 *
b101110000 #
1H
#1710
0H
#1720
b10110000 "
b0 &
b110 %
b0 =
b10100000 !
b10100000 #
b101110000 *
b111 +
b101 ,
b101100000 .
b110 /
b1 0
b100010000 3
b11 4
b100000000 9
b110 :
b1 K
1H
#1730
0H
#1740
b100000000 "
b11 %
b10110000 !
b1111 J
b11 :
b100010000 9
b1 5
b110 4
b101100000 3
b101 0
b111 /
b101110000 .
b0 ,
b110 +
b10100000 *
b10110000 #
1H
#1750
0H
#1760
b100010000 "
b110 %
b100000000 !
b100000000 #
b10110000 *
b11 +
b10100000 .
b110 /
b0 0
b101110000 3
b111 4
b101 5
b101100000 9
b110 :
b1100100 K
1H
#1770
0H
#1780
b101100000 "
b11 %
b100010000 !
b1010101 K
b111 :
b101110000 9
b0 5
b110 4
b10100000 3
b11 /
b10110000 .
b110 +
b100000000 *
b100010000 #
1H
#1790
0H
#1800
b101110000 "
b1 &
b110 %
b101100000 !
b101100000 #
b100010000 *
b11 +
b100000000 .
b110 /
b10110000 3
b11 4
b10100000 9
b110 :
1H
#1810
0H
#1820
b10100000 "
b101 &
b111 %
b101110000 !
b1111000 I
b11 :
b10110000 9
b110 4
b100000000 3
b11 /
b100010000 .
b1 ,
b110 +
b101100000 *
b101110000 #
1H
#1830
0H
#1840
b10110000 "
b0 &
b110 %
b0 =
b10100000 !
b10100000 #
b101110000 *
b111 +
b101 ,
b101100000 .
b110 /
b1 0
b100010000 3
b11 4
b100000000 9
b110 :
b1 K
1H
#1850
0H
#1860
b100000000 "
b11 %
b10110000 !
b10000 J
b11 :
b100010000 9
b1 5
b110 4
b101100000 3
b101 0
b111 /
b101110000 .
b0 ,
b110 +
b10100000 *
b10110000 #
1H
#1870
0H
#1880
b100010000 "
b110 %
b100000000 !
b100000000 #
b10110000 *
b11 +
b10100000 .
b110 /
b0 0
b101110000 3
b111 4
b101 5
b101100000 9
b110 :
b1100100 K
1H
#1890
0H
#1900
b101100000 "
b11 %
b100010000 !
b1010100 K
b111 :
b101110000 9
b0 5
b110 4
b10100000 3
b11 /
b10110000 .
b110 +
b100000000 *
b100010000 #
1H
#1910
0H
#1920
b101110000 "
b1 &
b110 %
b101100000 !
b101100000 #
b100010000 *
b11 +
b100000000 .
b110 /
b10110000 3
b11 4
b10100000 9
b110 :
1H
#1930
0H
#1940
b10100000 "
b101 &
b111 %
b101110000 !
b10001000 I
b11 :
b10110000 9
b110 4
b100000000 3
b11 /
b100010000 .
b1 ,
b110 +
b101100000 *
b101110000 #
1H
#1950
0H
#1960
b10110000 "
b0 &
b110 %
b0 =
b10100000 !
b10100000 #
b101110000 *
b111 +
b101 ,
b101100000 .
b110 /
b1 0
b100010000 3
b11 4
b100000000 9
b110 :
b1 K
1H
#1970
0H
#1980
b100000000 "
b11 %
b10110000 !
b10001 J
b11 :
b100010000 9
b1 5
b110 4
b101100000 3
b101 0
b111 /
b101110000 .
b0 ,
b110 +
b10100000 *
b10110000 #
1H
#1990
0H
#2000
b100010000 "
b110 %
b100000000 !
b100000000 #
b10110000 *
b11 +
b10100000 .
b110 /
b0 0
b101110000 3
b111 4
b101 5
b101100000 9
b110 :
b1100100 K
1H
#2010
0H
#2020
b101100000 "
b11 %
b100010000 !
b1010011 K
b111 :
b101110000 9
b0 5
b110 4
b10100000 3
b11 /
b10110000 .
b110 +
b100000000 *
b100010000 #
1H
#2030
0H
#2040
b101110000 "
b1 &
b110 %
b101100000 !
b101100000 #
b100010000 *
b11 +
b100000000 .
b110 /
b10110000 3
b11 4
b10100000 9
b110 :
1H
#2050
0H
#2060
b10100000 "
b101 &
b111 %
b101110000 !
b10011001 I
b11 :
b10110000 9
b110 4
b100000000 3
b11 /
b100010000 .
b1 ,
b110 +
b101100000 *
b101110000 #
1H
#2070
0H
#2080
b10110000 "
b0 &
b110 %
b0 =
b10100000 !
b10100000 #
b101110000 *
b111 +
b101 ,
b101100000 .
b110 /
b1 0
b100010000 3
b11 4
b100000000 9
b110 :
b1 K
1H
#2090
0H
#2100
b100000000 "
b11 %
b10110000 !
b10010 J
b11 :
b100010000 9
b1 5
b110 4
b101100000 3
b101 0
b111 /
b101110000 .
b0 ,
b110 +
b10100000 *
b10110000 #
1H
#2110
0H
#2120
b100010000 "
b110 %
b100000000 !
b100000000 #
b10110000 *
b11 +
b10100000 .
b110 /
b0 0
b101110000 3
b111 4
b101 5
b101100000 9
b110 :
b1100100 K
1H
#2130
0H
#2140
b101100000 "
b11 %
b100010000 !
b1010010 K
b111 :
b101110000 9
b0 5
b110 4
b10100000 3
b11 /
b10110000 .
b110 +
b100000000 *
b100010000 #
1H
#2150
0H
#2160
b101110000 "
b1 &
b110 %
b101100000 !
b101100000 #
b100010000 *
b11 +
b100000000 .
b110 /
b10110000 3
b11 4
b10100000 9
b110 :
1H
#2170
0H
#2180
b10100000 "
b101 &
b111 %
b101110000 !
b10101011 I
b11 :
b10110000 9
b110 4
b100000000 3
b11 /
b100010000 .
b1 ,
b110 +
b101100000 *
b101110000 #
1H
#2190
0H
#2200
b10110000 "
b0 &
b110 %
b0 =
b10100000 !
b10100000 #
b101110000 *
b111 +
b101 ,
b101100000 .
b110 /
b1 0
b100010000 3
b11 4
b100000000 9
b110 :
b1 K
1H
#2210
0H
#2220
b100000000 "
b11 %
b10110000 !
b10011 J
b11 :
b100010000 9
b1 5
b110 4
b101100000 3
b101 0
b111 /
b101110000 .
b0 ,
b110 +
b10100000 *
b10110000 #
1H
#2230
0H
#2240
b100010000 "
b110 %
b100000000 !
b100000000 #
b10110000 *
b11 +
b10100000 .
b110 /
b0 0
b101110000 3
b111 4
b101 5
b101100000 9
b110 :
b1100100 K
1H
#2250
0H
#2260
b101100000 "
b11 %
b100010000 !
b1010001 K
b111 :
b101110000 9
b0 5
b110 4
b10100000 3
b11 /
b10110000 .
b110 +
b100000000 *
b100010000 #
1H
#2270
0H
#2280
b101110000 "
b1 &
b110 %
b101100000 !
b101100000 #
b100010000 *
b11 +
b100000000 .
b110 /
b10110000 3
b11 4
b10100000 9
b110 :
1H
#2290
0H
#2300
b10100000 "
b101 &
b111 %
b101110000 !
b10111110 I
b11 :
b10110000 9
b110 4
b100000000 3
b11 /
b100010000 .
b1 ,
b110 +
b101100000 *
b101110000 #
1H
#2310
0H
#2320
b10110000 "
b0 &
b110 %
b0 =
b10100000 !
b10100000 #
b101110000 *
b111 +
b101 ,
b101100000 .
b110 /
b1 0
b100010000 3
b11 4
b100000000 9
b110 :
b1 K
1H
#2330
0H
#2340
b100000000 "
b11 %
b10110000 !
b10100 J
b11 :
b100010000 9
b1 5
b110 4
b101100000 3
b101 0
b111 /
b101110000 .
b0 ,
b110 +
b10100000 *
b10110000 #
1H
#2350
0H
#2360
b100010000 "
b110 %
b100000000 !
b100000000 #
b10110000 *
b11 +
b10100000 .
b110 /
b0 0
b101110000 3
b111 4
b101 5
b101100000 9
b110 :
b1100100 K
1H
#2370
0H
#2380
b101100000 "
b11 %
b100010000 !
b1010000 K
b111 :
b101110000 9
b0 5
b110 4
b10100000 3
b11 /
b10110000 .
b110 +
b100000000 *
b100010000 #
1H
#2390
0H
#2400
b101110000 "
b1 &
b110 %
b101100000 !
b101100000 #
b100010000 *
b11 +
b100000000 .
b110 /
b10110000 3
b11 4
b10100000 9
b110 :
1H
#2410
0H
#2420
b10100000 "
b101 &
b111 %
b101110000 !
b11010010 I
b11 :
b10110000 9
b110 4
b100000000 3
b11 /
b100010000 .
b1 ,
b110 +
b101100000 *
b101110000 #
1H
#2430
0H
#2440
b10110000 "
b0 &
b110 %
b0 =
b10100000 !
b10100000 #
b101110000 *
b111 +
b101 ,
b101100000 .
b110 /
b1 0
b100010000 3
b11 4
b100000000 9
b110 :
b1 K
1H
#2450
0H
#2460
b100000000 "
b11 %
b10110000 !
b10101 J
b11 :
b100010000 9
b1 5
b110 4
b101100000 3
b101 0
b111 /
b101110000 .
b0 ,
b110 +
b10100000 *
b10110000 #
1H
#2470
0H
