hardware/pipeline/sim/proc.vcd
$date
	Thu Feb 26 21:10:20 2026
$end
$version
	Icarus Verilog
$end
$timescale
	1s
$end
$scope module proc $end
$var reg 64 ! f_pc [63:0] $end
$upscope $end
$scope module proc $end
$var wire 64 " f_predPC [63:0] $end
$upscope $end
$scope module proc $end
$var wire 64 # F_predPC [63:0] $end
$upscope $end
$scope module proc $end
$var wire 2 $ f_stat [1:0] $end
$upscope $end
$scope module proc $end
$var wire 4 % f_icode [3:0] $end
$upscope $end
$scope module proc $end
$var wire 4 & f_ifun [3:0] $end
$upscope $end
$scope module proc $end
$var wire 1 ' instr_valid $end
$upscope $end
$scope module proc $end
$var wire 1 ( imem_error $end
$upscope $end
$scope module proc $end
$var wire 2 ) D_stat [1:0] $end
$upscope $end
$scope module proc $end
$var wire 64 * D_pc [63:0] $end
$upscope $end
$scope module proc $end
$var wire 4 + D_icode [3:0] $end
$upscope $end
$scope module proc $end
$var wire 4 , D_ifun [3:0] $end
$upscope $end
$scope module proc $end
$var wire 4 - d_srcA [3:0] $end
$upscope $end
$scope module proc $end
$var wire 4 . d_srcB [3:0] $end
$upscope $end
$scope module proc $end
$var wire 2 / E_stat [1:0] $end
$upscope $end
$scope module proc $end
$var wire 64 0 E_pc [63:0] $end
$upscope $end
$scope module proc $end
$var wire 4 1 E_icode [3:0] $end
$upscope $end
$scope module proc $end
$var wire 4 2 E_ifun [3:0] $end
$upscope $end
$scope module proc $end
$var wire 1 3 e_Cnd $end
$upscope $end
$scope module proc $end
$var wire 4 4 E_dstM [3:0] $end
$upscope $end
$scope module proc $end
$var wire 4 5 e_dstE [3:0] $end
$upscope $end
$scope module proc $end
$var wire 2 6 M_stat [1:0] $end
$upscope $end
$scope module proc $end
$var wire 64 7 M_pc [63:0] $end
$upscope $end
$scope module proc $end
$var wire 4 8 M_icode [3:0] $end
$upscope $end
$scope module proc $end
$var wire 4 9 M_ifun [3:0] $end
$upscope $end
$scope module proc $end
$var wire 1 : M_Cnd $end
$upscope $end
$scope module proc $end
$var wire 2 ; m_stat [1:0] $end
$upscope $end
$scope module proc $end
$var wire 4 < M_dstE [3:0] $end
$upscope $end
$scope module proc $end
$var wire 4 = M_dstM [3:0] $end
$upscope $end
$scope module proc $end
$var wire 2 > W_stat [1:0] $end
$upscope $end
$scope module proc $end
$var wire 64 ? W_pc [63:0] $end
$upscope $end
$scope module proc $end
$var wire 4 @ W_icode [3:0] $end
$upscope $end
$scope module proc $end
$var wire 4 A W_dstE [3:0] $end
$upscope $end
$scope module proc $end
$var wire 4 B W_dstM [3:0] $end
$upscope $end
$scope module proc $end
$var wire 3 C cc [2:0] $end
$upscope $end
$scope module proc $end
$var wire 1 D set_cc $end
$upscope $end
$scope module proc $end
$var wire 3 E new_cc [2:0] $end
$upscope $end
$scope module proc $end
$var reg 1 F F_stall $end
$upscope $end
$scope module proc $end
$var reg 1 G F_bubble $end
$upscope $end
$scope module proc $end
$var reg 1 H D_stall $end
$upscope $end
$scope module proc $end
$var reg 1 I D_bubble $end
$upscope $end
$scope module proc $end
$var reg 1 J E_stall $end
$upscope $end
$scope module proc $end
$var reg 1 K E_bubble $end
$upscope $end
$scope module proc $end
$var reg 1 L M_stall $end
$upscope $end
$scope module proc $end
$var reg 1 M M_bubble $end
$upscope $end
$scope module proc $end
$var reg 1 N W_stall $end
$upscope $end
$scope module proc $end
$var reg 1 O W_bubble $end
$upscope $end
$scope module proc $end
$var reg 1 P clock $end
$upscope $end
$scope module proc $end
$var wire 64 Q rax [63:0] $end
$upscope $end
$scope module proc $end
$var wire 64 R rcx [63:0] $end
$upscope $end
$scope module proc $end
$var wire 64 S rdx [63:0] $end
$upscope $end
$scope module proc $end
$var wire 64 T rbx [63:0] $end
$upscope $end
$scope module proc $end
$var wire 64 U rsp [63:0] $end
$upscope $end
$scope module proc $end
$var wire 64 V rbp [63:0] $end
$upscope $end
$scope module proc $end
$var wire 64 W rsi [63:0] $end
$upscope $end
$scope module proc $end
$var wire 64 X rdi [63:0] $end
$upscope $end
$scope module proc $end
$var wire 64 Y r8 [63:0] $end
$upscope $end
$scope module proc $end
$var wire 64 Z r9 [63:0] $end
$upscope $end
$scope module proc $end
$var wire 64 [ r10 [63:0] $end
$upscope $end
$scope module proc $end
$var wire 64 \ r11 [63:0] $end
$upscope $end
$scope module proc $end
$var wire 64 ] r12 [63:0] $end
$upscope $end
$scope module proc $end
$var wire 64 ^ r13 [63:0] $end
$upscope $end
$scope module proc $end
$var wire 64 _ r14 [63:0] $end
$upscope $end
$enddefinitions $end
$comment Show the parameter values. $end
$dumpall
$end
#0
$dumpvars
bx _
bx ^
bx ]
bx \
bx [
bx Z
bx Y
bx X
bx W
bx V
bx U
bx T
bx S
bx R
bx Q
1P
0O
0N
0M
0L
0K
0J
0I
0H
0G
0F
b0 E
0D
bx C
bx B
bx A
bx @
bx ?
bx >
bx =
bx <
bx ;
x:
bx 9
bx 8
bx 7
bx 6
bx 5
bx 4
03
bx 2
bx 1
bx 0
bx /
bx .
bx -
bx ,
bx +
bx *
bx )
0(
1'
b0 &
b11 %
b0 $
bx #
b1010000 "
b0 !
$end
#10
0P
#20
b10100000 "
b1111 .
b1111 -
b1010000 !
0:
b0 ,
b11 +
b0 *
b0 )
b1010000 #
1P
#30
0P
#40
b10110000 "
b110 %
b10100000 !
b0 5
b10100000 #
b1010000 *
b0 /
b0 0
b11 1
b0 2
b1111 4
1P
#50
0P
#60
b100000000 "
b11 %
b0 .
b1 -
b10110000 !
b1 5
b1111 =
b0 <
b0 9
b11 8
b0 7
b0 ;
b0 6
b1010000 0
b110 +
b10100000 *
b10110000 #
1P
#70
0P
#80
b100010000 "
b110 %
b1111 .
b1111 -
1D
b100000000 !
b0 5
b100000000 #
b10110000 *
b11 +
b10100000 0
b110 1
b1010000 7
b1 <
b0 >
b0 ?
b11 @
b0 A
b1111 B
1P
#90
0P
#100
b101100000 "
b11 %
b1 .
b10 -
b100010000 !
b10 5
b0 C
b0 Q
b1 A
b1010000 ?
b0 <
b110 8
b10100000 7
b11 1
b10110000 0
b110 +
b100000000 *
b100010000 #
1P
#110
0P
#120
b101110000 "
b1 &
b110 %
b1111 .
b1111 -
b101100000 !
b1 5
b101100000 #
b100010000 *
b11 +
b100000000 0
b110 1
b10110000 7
b11 8
b10 <
b10100000 ?
b110 @
b0 A
b1 R
1P
#130
0P
#140
b10100000 "
b101 &
b111 %
b10 .
b1 -
b101110000 !
b10 5
b1 Q
b10 A
b11 @
b10110000 ?
b1 <
b110 8
b100000000 7
b11 1
b100010000 0
b1 ,
b110 +
b101100000 *
b101110000 #
1P
#150
0P
#160
b10110000 "
b0 &
b110 %
b0 E
b1111 .
b1111 -
b10100000 !
b10100000 #
b101110000 *
b111 +
b101 ,
b101100000 0
b110 1
b1 2
b100010000 7
b11 8
b10 <
b100000000 ?
b110 @
b1 A
b1 S
1P
#170
0P
#180
b100000000 "
b11 %
b0 .
b1 -
b10110000 !
b1111 5
13
0K
0I
b10 R
b10 A
b11 @
b100010000 ?
b1 9
b110 8
b101100000 7
b101 2
b111 1
b101110000 0
b0 ,
b110 +
b10100000 *
b10110000 #
1P
#190
0P
#200
b100010000 "
b110 %
b1111 .
b1111 -
b100000000 !
b0 5
b100000000 #
b10110000 *
b11 +
b10100000 0
b110 1
b0 2
b101110000 7
b111 8
b101 9
1:
b1111 <
b101100000 ?
b110 @
b1100100 S
1P
#210
0P
#220
b101100000 "
b11 %
b1 .
b10 -
b100010000 !
b10 5
b1100010 S
b1111 A
b111 @
b101110000 ?
b0 <
b0 9
b110 8
b10100000 7
b11 1
b10110000 0
b110 +
b100000000 *
b100010000 #
1P
#230
0P
#240
b101110000 "
b1 &
b110 %
b1111 .
b1111 -
b101100000 !
b1 5
b101100000 #
b100010000 *
b11 +
b100000000 0
b110 1
b10110000 7
b11 8
b10 <
b10100000 ?
b110 @
b0 A
1P
#250
0P
#260
b10100000 "
b101 &
b111 %
b10 .
b1 -
b101110000 !
b10 5
b11 Q
b10 A
b11 @
b10110000 ?
b1 <
b110 8
b100000000 7
b11 1
b100010000 0
b1 ,
b110 +
b101100000 *
b101110000 #
1P
#270
0P
#280
b10110000 "
b0 &
b110 %
b0 E
b1111 .
b1111 -
b10100000 !
b10100000 #
b101110000 *
b111 +
b101 ,
b101100000 0
b110 1
b1 2
b100010000 7
b11 8
b10 <
b100000000 ?
b110 @
b1 A
b1 S
1P
#290
0P
#300
b100000000 "
b11 %
b0 .
b1 -
b10110000 !
b1111 5
b11 R
b10 A
b11 @
b100010000 ?
b1 9
b110 8
b101100000 7
b101 2
b111 1
b101110000 0
b0 ,
b110 +
b10100000 *
b10110000 #
1P
#310
0P
#320
b100010000 "
b110 %
b1111 .
b1111 -
b100000000 !
b0 5
b100000000 #
b10110000 *
b11 +
b10100000 0
b110 1
b0 2
b101110000 7
b111 8
b101 9
b1111 <
b101100000 ?
b110 @
b1100100 S
1P
#330
0P
#340
b101100000 "
b11 %
b1 .
b10 -
b100010000 !
b10 5
b1100001 S
b1111 A
b111 @
b101110000 ?
b0 <
b0 9
b110 8
b10100000 7
b11 1
b10110000 0
b110 +
b100000000 *
b100010000 #
1P
#350
0P
#360
b101110000 "
b1 &
b110 %
b1111 .
b1111 -
b101100000 !
b1 5
b101100000 #
b100010000 *
b11 +
b100000000 0
b110 1
b10110000 7
b11 8
b10 <
b10100000 ?
b110 @
b0 A
1P
#370
0P
#380
b10100000 "
b101 &
b111 %
b10 .
b1 -
b101110000 !
b10 5
b110 Q
b10 A
b11 @
b10110000 ?
b1 <
b110 8
b100000000 7
b11 1
b100010000 0
b1 ,
b110 +
b101100000 *
b101110000 #
1P
#390
0P
#400
b10110000 "
b0 &
b110 %
b0 E
b1111 .
b1111 -
b10100000 !
b10100000 #
b101110000 *
b111 +
b101 ,
b101100000 0
b110 1
b1 2
b100010000 7
b11 8
b10 <
b100000000 ?
b110 @
b1 A
b1 S
1P
#410
0P
#420
b100000000 "
b11 %
b0 .
b1 -
b10110000 !
b1111 5
b100 R
b10 A
b11 @
b100010000 ?
b1 9
b110 8
b101100000 7
b101 2
b111 1
b101110000 0
b0 ,
b110 +
b10100000 *
b10110000 #
1P
#430
0P
#440
b100010000 "
b110 %
b1111 .
b1111 -
b100000000 !
b0 5
b100000000 #
b10110000 *
b11 +
b10100000 0
b110 1
b0 2
b101110000 7
b111 8
b101 9
b1111 <
b101100000 ?
b110 @
b1100100 S
1P
#450
0P
#460
b101100000 "
b11 %
b1 .
b10 -
b100010000 !
b10 5
b1100000 S
b1111 A
b111 @
b101110000 ?
b0 <
b0 9
b110 8
b10100000 7
b11 1
b10110000 0
b110 +
b100000000 *
b100010000 #
1P
#470
0P
#480
b101110000 "
b1 &
b110 %
b1111 .
b1111 -
b101100000 !
b1 5
b101100000 #
b100010000 *
b11 +
b100000000 0
b110 1
b10110000 7
b11 8
b10 <
b10100000 ?
b110 @
b0 A
1P
#490
0P
#500
b10100000 "
b101 &
b111 %
b10 .
b1 -
b101110000 !
b10 5
b1010 Q
b10 A
b11 @
b10110000 ?
b1 <
b110 8
b100000000 7
b11 1
b100010000 0
b1 ,
b110 +
b101100000 *
b101110000 #
1P
#510
0P
#520
b10110000 "
b0 &
b110 %
b0 E
b1111 .
b1111 -
b10100000 !
b10100000 #
b101110000 *
b111 +
b101 ,
b101100000 0
b110 1
b1 2
b100010000 7
b11 8
b10 <
b100000000 ?
b110 @
b1 A
b1 S
1P
#530
0P
#540
b100000000 "
b11 %
b0 .
b1 -
b10110000 !
b1111 5
b101 R
b10 A
b11 @
b100010000 ?
b1 9
b110 8
b101100000 7
b101 2
b111 1
b101110000 0
b0 ,
b110 +
b10100000 *
b10110000 #
1P
#550
0P
#560
b100010000 "
b110 %
b1111 .
b1111 -
b100000000 !
b0 5
b100000000 #
b10110000 *
b11 +
b10100000 0
b110 1
b0 2
b101110000 7
b111 8
b101 9
b1111 <
b101100000 ?
b110 @
b1100100 S
1P
#570
0P
#580
b101100000 "
b11 %
b1 .
b10 -
b100010000 !
b10 5
b1011111 S
b1111 A
b111 @
b101110000 ?
b0 <
b0 9
b110 8
b10100000 7
b11 1
b10110000 0
b110 +
b100000000 *
b100010000 #
1P
#590
0P
#600
b101110000 "
b1 &
b110 %
b1111 .
b1111 -
b101100000 !
b1 5
b101100000 #
b100010000 *
b11 +
b100000000 0
b110 1
b10110000 7
b11 8
b10 <
b10100000 ?
b110 @
b0 A
1P
#610
0P
#620
b10100000 "
b101 &
b111 %
b10 .
b1 -
b101110000 !
b10 5
b1111 Q
b10 A
b11 @
b10110000 ?
b1 <
b110 8
b100000000 7
b11 1
b100010000 0
b1 ,
b110 +
b101100000 *
b101110000 #
1P
#630
0P
#640
b10110000 "
b0 &
b110 %
b0 E
b1111 .
b1111 -
b10100000 !
b10100000 #
b101110000 *
b111 +
b101 ,
b101100000 0
b110 1
b1 2
b100010000 7
b11 8
b10 <
b100000000 ?
b110 @
b1 A
b1 S
1P
#650
0P
#660
b100000000 "
b11 %
b0 .
b1 -
b10110000 !
b1111 5
b110 R
b10 A
b11 @
b100010000 ?
b1 9
b110 8
b101100000 7
b101 2
b111 1
b101110000 0
b0 ,
b110 +
b10100000 *
b10110000 #
1P
#670
0P
#680
b100010000 "
b110 %
b1111 .
b1111 -
b100000000 !
b0 5
b100000000 #
b10110000 *
b11 +
b10100000 0
b110 1
b0 2
b101110000 7
b111 8
b101 9
b1111 <
b101100000 ?
b110 @
b1100100 S
1P
#690
0P
#700
b101100000 "
b11 %
b1 .
b10 -
b100010000 !
b10 5
b1011110 S
b1111 A
b111 @
b101110000 ?
b0 <
b0 9
b110 8
b10100000 7
b11 1
b10110000 0
b110 +
b100000000 *
b100010000 #
1P
#710
0P
#720
b101110000 "
b1 &
b110 %
b1111 .
b1111 -
b101100000 !
b1 5
b101100000 #
b100010000 *
b11 +
b100000000 0
b110 1
b10110000 7
b11 8
b10 <
b10100000 ?
b110 @
b0 A
1P
#730
0P
#740
b10100000 "
b101 &
b111 %
b10 .
b1 -
b101110000 !
b10 5
b10101 Q
b10 A
b11 @
b10110000 ?
b1 <
b110 8
b100000000 7
b11 1
b100010000 0
b1 ,
b110 +
b101100000 *
b101110000 #
1P
#750
0P
#760
b10110000 "
b0 &
b110 %
b0 E
b1111 .
b1111 -
b10100000 !
b10100000 #
b101110000 *
b111 +
b101 ,
b101100000 0
b110 1
b1 2
b100010000 7
b11 8
b10 <
b100000000 ?
b110 @
b1 A
b1 S
1P
#770
0P
#780
b100000000 "
b11 %
b0 .
b1 -
b10110000 !
b1111 5
b111 R
b10 A
b11 @
b100010000 ?
b1 9
b110 8
b101100000 7
b101 2
b111 1
b101110000 0
b0 ,
b110 +
b10100000 *
b10110000 #
1P
#790
0P
#800
b100010000 "
b110 %
b1111 .
b1111 -
b100000000 !
b0 5
b100000000 #
b10110000 *
b11 +
b10100000 0
b110 1
b0 2
b101110000 7
b111 8
b101 9
b1111 <
b101100000 ?
b110 @
b1100100 S
1P
#810
0P
#820
b101100000 "
b11 %
b1 .
b10 -
b100010000 !
b10 5
b1011101 S
b1111 A
b111 @
b101110000 ?
b0 <
b0 9
b110 8
b10100000 7
b11 1
b10110000 0
b110 +
b100000000 *
b100010000 #
1P
#830
0P
#840
b101110000 "
b1 &
b110 %
b1111 .
b1111 -
b101100000 !
b1 5
b101100000 #
b100010000 *
b11 +
b100000000 0
b110 1
b10110000 7
b11 8
b10 <
b10100000 ?
b110 @
b0 A
1P
#850
0P
#860
b10100000 "
b101 &
b111 %
b10 .
b1 -
b101110000 !
b10 5
b11100 Q
b10 A
b11 @
b10110000 ?
b1 <
b110 8
b100000000 7
b11 1
b100010000 0
b1 ,
b110 +
b101100000 *
b101110000 #
1P
#870
0P
#880
b10110000 "
b0 &
b110 %
b0 E
b1111 .
b1111 -
b10100000 !
b10100000 #
b101110000 *
b111 +
b101 ,
b101100000 0
b110 1
b1 2
b100010000 7
b11 8
b10 <
b100000000 ?
b110 @
b1 A
b1 S
1P
#890
0P
#900
b100000000 "
b11 %
b0 .
b1 -
b10110000 !
b1111 5
b1000 R
b10 A
b11 @
b100010000 ?
b1 9
b110 8
b101100000 7
b101 2
b111 1
b101110000 0
b0 ,
b110 +
b10100000 *
b10110000 #
1P
#910
0P
#920
b100010000 "
b110 %
b1111 .
b1111 -
b100000000 !
b0 5
b100000000 #
b10110000 *
b11 +
b10100000 0
b110 1
b0 2
b101110000 7
b111 8
b101 9
b1111 <
b101100000 ?
b110 @
b1100100 S
1P
#930
0P
#940
b101100000 "
b11 %
b1 .
b10 -
b100010000 !
b10 5
b1011100 S
b1111 A
b111 @
b101110000 ?
b0 <
b0 9
b110 8
b10100000 7
b11 1
b10110000 0
b110 +
b100000000 *
b100010000 #
1P
#950
0P
#960
b101110000 "
b1 &
b110 %
b1111 .
b1111 -
b101100000 !
b1 5
b101100000 #
b100010000 *
b11 +
b100000000 0
b110 1
b10110000 7
b11 8
b10 <
b10100000 ?
b110 @
b0 A
1P
#970
0P
#980
b10100000 "
b101 &
b111 %
b10 .
b1 -
b101110000 !
b10 5
b100100 Q
b10 A
b11 @
b10110000 ?
b1 <
b110 8
b100000000 7
b11 1
b100010000 0
b1 ,
b110 +
b101100000 *
b101110000 #
1P
#990
0P
#1000
b10110000 "
b0 &
b110 %
b0 E
b1111 .
b1111 -
b10100000 !
b10100000 #
b101110000 *
b111 +
b101 ,
b101100000 0
b110 1
b1 2
b100010000 7
b11 8
b10 <
b100000000 ?
b110 @
b1 A
b1 S
1P
#1010
0P
#1020
b100000000 "
b11 %
b0 .
b1 -
b10110000 !
b1111 5
b1001 R
b10 A
b11 @
b100010000 ?
b1 9
b110 8
b101100000 7
b101 2
b111 1
b101110000 0
b0 ,
b110 +
b10100000 *
b10110000 #
1P
#1030
0P
#1040
b100010000 "
b110 %
b1111 .
b1111 -
b100000000 !
b0 5
b100000000 #
b10110000 *
b11 +
b10100000 0
b110 1
b0 2
b101110000 7
b111 8
b101 9
b1111 <
b101100000 ?
b110 @
b1100100 S
1P
#1050
0P
#1060
b101100000 "
b11 %
b1 .
b10 -
b100010000 !
b10 5
b1011011 S
b1111 A
b111 @
b101110000 ?
b0 <
b0 9
b110 8
b10100000 7
b11 1
b10110000 0
b110 +
b100000000 *
b100010000 #
1P
#1070
0P
#1080
b101110000 "
b1 &
b110 %
b1111 .
b1111 -
b101100000 !
b1 5
b101100000 #
b100010000 *
b11 +
b100000000 0
b110 1
b10110000 7
b11 8
b10 <
b10100000 ?
b110 @
b0 A
1P
#1090
0P
#1100
b10100000 "
b101 &
b111 %
b10 .
b1 -
b101110000 !
b10 5
b101101 Q
b10 A
b11 @
b10110000 ?
b1 <
b110 8
b100000000 7
b11 1
b100010000 0
b1 ,
b110 +
b101100000 *
b101110000 #
1P
#1110
0P
#1120
b10110000 "
b0 &
b110 %
b0 E
b1111 .
b1111 -
b10100000 !
b10100000 #
b101110000 *
b111 +
b101 ,
b101100000 0
b110 1
b1 2
b100010000 7
b11 8
b10 <
b100000000 ?
b110 @
b1 A
b1 S
1P
#1130
0P
#1140
b100000000 "
b11 %
b0 .
b1 -
b10110000 !
b1111 5
b1010 R
b10 A
b11 @
b100010000 ?
b1 9
b110 8
b101100000 7
b101 2
b111 1
b101110000 0
b0 ,
b110 +
b10100000 *
b10110000 #
1P
#1150
0P
#1160
b100010000 "
b110 %
b1111 .
b1111 -
b100000000 !
b0 5
b100000000 #
b10110000 *
b11 +
b10100000 0
b110 1
b0 2
b101110000 7
b111 8
b101 9
b1111 <
b101100000 ?
b110 @
b1100100 S
1P
#1170
0P
#1180
b101100000 "
b11 %
b1 .
b10 -
b100010000 !
b10 5
b1011010 S
b1111 A
b111 @
b101110000 ?
b0 <
b0 9
b110 8
b10100000 7
b11 1
b10110000 0
b110 +
b100000000 *
b100010000 #
1P
#1190
0P
#1200
b101110000 "
b1 &
b110 %
b1111 .
b1111 -
b101100000 !
b1 5
b101100000 #
b100010000 *
b11 +
b100000000 0
b110 1
b10110000 7
b11 8
b10 <
b10100000 ?
b110 @
b0 A
1P
#1210
0P
#1220
b10100000 "
b101 &
b111 %
b10 .
b1 -
b101110000 !
b10 5
b110111 Q
b10 A
b11 @
b10110000 ?
b1 <
b110 8
b100000000 7
b11 1
b100010000 0
b1 ,
b110 +
b101100000 *
b101110000 #
1P
#1230
0P
#1240
b10110000 "
b0 &
b110 %
b0 E
b1111 .
b1111 -
b10100000 !
b10100000 #
b101110000 *
b111 +
b101 ,
b101100000 0
b110 1
b1 2
b100010000 7
b11 8
b10 <
b100000000 ?
b110 @
b1 A
b1 S
1P
#1250
0P
#1260
b100000000 "
b11 %
b0 .
b1 -
b10110000 !
b1111 5
b1011 R
b10 A
b11 @
b100010000 ?
b1 9
b110 8
b101100000 7
b101 2
b111 1
b101110000 0
b0 ,
b110 +
b10100000 *
b10110000 #
1P
#1270
0P
#1280
b100010000 "
b110 %
b1111 .
b1111 -
b100000000 !
b0 5
b100000000 #
b10110000 *
b11 +
b10100000 0
b110 1
b0 2
b101110000 7
b111 8
b101 9
b1111 <
b101100000 ?
b110 @
b1100100 S
1P
#1290
0P
#1300
b101100000 "
b11 %
b1 .
b10 -
b100010000 !
b10 5
b1011001 S
b1111 A
b111 @
b101110000 ?
b0 <
b0 9
b110 8
b10100000 7
b11 1
b10110000 0
b110 +
b100000000 *
b100010000 #
1P
#1310
0P
#1320
b101110000 "
b1 &
b110 %
b1111 .
b1111 -
b101100000 !
b1 5
b101100000 #
b100010000 *
b11 +
b100000000 0
b110 1
b10110000 7
b11 8
b10 <
b10100000 ?
b110 @
b0 A
1P
#1330
0P
#1340
b10100000 "
b101 &
b111 %
b10 .
b1 -
b101110000 !
b10 5
b1000010 Q
b10 A
b11 @
b10110000 ?
b1 <
b110 8
b100000000 7
b11 1
b100010000 0
b1 ,
b110 +
b101100000 *
b101110000 #
1P
#1350
0P
#1360
b10110000 "
b0 &
b110 %
b0 E
b1111 .
b1111 -
b10100000 !
b10100000 #
b101110000 *
b111 +
b101 ,
b101100000 0
b110 1
b1 2
b100010000 7
b11 8
b10 <
b100000000 ?
b110 @
b1 A
b1 S
1P
#1370
0P
#1380
b100000000 "
b11 %
b0 .
b1 -
b10110000 !
b1111 5
b1100 R
b10 A
b11 @
b100010000 ?
b1 9
b110 8
b101100000 7
b101 2
b111 1
b101110000 0
b0 ,
b110 +
b10100000 *
b10110000 #
1P
#1390
0P
#1400
b100010000 "
b110 %
b1111 .
b1111 -
b100000000 !
b0 5
b100000000 #
b10110000 *
b11 +
b10100000 0
b110 1
b0 2
b101110000 7
b111 8
b101 9
b1111 <
b101100000 ?
b110 @
b1100100 S
1P
#1410
0P
#1420
b101100000 "
b11 %
b1 .
b10 -
b100010000 !
b10 5
b1011000 S
b1111 A
b111 @
b101110000 ?
b0 <
b0 9
b110 8
b10100000 7
b11 1
b10110000 0
b110 +
b100000000 *
b100010000 #
1P
#1430
0P
#1440
b101110000 "
b1 &
b110 %
b1111 .
b1111 -
b101100000 !
b1 5
b101100000 #
b100010000 *
b11 +
b100000000 0
b110 1
b10110000 7
b11 8
b10 <
b10100000 ?
b110 @
b0 A
1P
#1450
0P
#1460
b10100000 "
b101 &
b111 %
b10 .
b1 -
b101110000 !
b10 5
b1001110 Q
b10 A
b11 @
b10110000 ?
b1 <
b110 8
b100000000 7
b11 1
b100010000 0
b1 ,
b110 +
b101100000 *
b101110000 #
1P
#1470
0P
#1480
b10110000 "
b0 &
b110 %
b0 E
b1111 .
b1111 -
b10100000 !
b10100000 #
b101110000 *
b111 +
b101 ,
b101100000 0
b110 1
b1 2
b100010000 7
b11 8
b10 <
b100000000 ?
b110 @
b1 A
b1 S
1P
#1490
0P
#1500
b100000000 "
b11 %
b0 .
b1 -
b10110000 !
b1111 5
b1101 R
b10 A
b11 @
b100010000 ?
b1 9
b110 8
b101100000 7
b101 2
b111 1
b101110000 0
b0 ,
b110 +
b10100000 *
b10110000 #
1P
#1510
0P
#1520
b100010000 "
b110 %
b1111 .
b1111 -
b100000000 !
b0 5
b100000000 #
b10110000 *
b11 +
b10100000 0
b110 1
b0 2
b101110000 7
b111 8
b101 9
b1111 <
b101100000 ?
b110 @
b1100100 S
1P
#1530
0P
#1540
b101100000 "
b11 %
b1 .
b10 -
b100010000 !
b10 5
b1010111 S
b1111 A
b111 @
b101110000 ?
b0 <
b0 9
b110 8
b10100000 7
b11 1
b10110000 0
b110 +
b100000000 *
b100010000 #
1P
#1550
0P
#1560
b101110000 "
b1 &
b110 %
b1111 .
b1111 -
b101100000 !
b1 5
b101100000 #
b100010000 *
b11 +
b100000000 0
b110 1
b10110000 7
b11 8
b10 <
b10100000 ?
b110 @
b0 A
1P
#1570
0P
#1580
b10100000 "
b101 &
b111 %
b10 .
b1 -
b101110000 !
b10 5
b1011011 Q
b10 A
b11 @
b10110000 ?
b1 <
b110 8
b100000000 7
b11 1
b100010000 0
b1 ,
b110 +
b101100000 *
b101110000 #
1P
#1590
0P
#1600
b10110000 "
b0 &
b110 %
b0 E
b1111 .
b1111 -
b10100000 !
b10100000 #
b101110000 *
b111 +
b101 ,
b101100000 0
b110 1
b1 2
b100010000 7
b11 8
b10 <
b100000000 ?
b110 @
b1 A
b1 S
1P
#1610
0P
#1620
b100000000 "
b11 %
b0 .
b1 -
b10110000 !
b1111 5
b1110 R
b10 A
b11 @
b100010000 ?
b1 9
b110 8
b101100000 7
b101 2
b111 1
b101110000 0
b0 ,
b110 +
b10100000 *
b10110000 #
1P
#1630
0P
#1640
b100010000 "
b110 %
b1111 .
b1111 -
b100000000 !
b0 5
b100000000 #
b10110000 *
b11 +
b10100000 0
b110 1
b0 2
b101110000 7
b111 8
b101 9
b1111 <
b101100000 ?
b110 @
b1100100 S
1P
#1650
0P
#1660
b101100000 "
b11 %
b1 .
b10 -
b100010000 !
b10 5
b1010110 S
b1111 A
b111 @
b101110000 ?
b0 <
b0 9
b110 8
b10100000 7
b11 1
b10110000 0
b110 +
b100000000 *
b100010000 #
1P
#1670
0P
#1680
b101110000 "
b1 &
b110 %
b1111 .
b1111 -
b101100000 !
b1 5
b101100000 #
b100010000 *
b11 +
b100000000 0
b110 1
b10110000 7
b11 8
b10 <
b10100000 ?
b110 @
b0 A
1P
#1690
0P
#1700
b10100000 "
b101 &
b111 %
b10 .
b1 -
b101110000 !
b10 5
b1101001 Q
b10 A
b11 @
b10110000 ?
b1 <
b110 8
b100000000 7
b11 1
b100010000 0
b1 ,
b110 +
b101100000 *
b101110000 #
1P
#1710
0P
#1720
b10110000 "
b0 &
b110 %
b0 E
b1111 .
b1111 -
b10100000 !
b10100000 #
b101110000 *
b111 +
b101 ,
b101100000 0
b110 1
b1 2
b100010000 7
b11 8
b10 <
b100000000 ?
b110 @
b1 A
b1 S
1P
#1730
0P
#1740
b100000000 "
b11 %
b0 .
b1 -
b10110000 !
b1111 5
b1111 R
b10 A
b11 @
b100010000 ?
b1 9
b110 8
b101100000 7
b101 2
b111 1
b101110000 0
b0 ,
b110 +
b10100000 *
b10110000 #
1P
#1750
0P
#1760
b100010000 "
b110 %
b1111 .
b1111 -
b100000000 !
b0 5
b100000000 #
b10110000 *
b11 +
b10100000 0
b110 1
b0 2
b101110000 7
b111 8
b101 9
b1111 <
b101100000 ?
b110 @
b1100100 S
1P
#1770
0P
#1780
b101100000 "
b11 %
b1 .
b10 -
b100010000 !
b10 5
b1010101 S
b1111 A
b111 @
b101110000 ?
b0 <
b0 9
b110 8
b10100000 7
b11 1
b10110000 0
b110 +
b100000000 *
b100010000 #
1P
#1790
0P
#1800
b101110000 "
b1 &
b110 %
b1111 .
b1111 -
b101100000 !
b1 5
b101100000 #
b100010000 *
b11 +
b100000000 0
b110 1
b10110000 7
b11 8
b10 <
b10100000 ?
b110 @
b0 A
1P
#1810
0P
#1820
b10100000 "
b101 &
b111 %
b10 .
b1 -
b101110000 !
b10 5
b1111000 Q
b10 A
b11 @
b10110000 ?
b1 <
b110 8
b100000000 7
b11 1
b100010000 0
b1 ,
b110 +
b101100000 *
b101110000 #
1P
#1830
0P
#1840
b10110000 "
b0 &
b110 %
b0 E
b1111 .
b1111 -
b10100000 !
b10100000 #
b101110000 *
b111 +
b101 ,
b101100000 0
b110 1
b1 2
b100010000 7
b11 8
b10 <
b100000000 ?
b110 @
b1 A
b1 S
1P
#1850
0P
#1860
b100000000 "
b11 %
b0 .
b1 -
b10110000 !
b1111 5
b10000 R
b10 A
b11 @
b100010000 ?
b1 9
b110 8
b101100000 7
b101 2
b111 1
b101110000 0
b0 ,
b110 +
b10100000 *
b10110000 #
1P
#1870
0P
#1880
b100010000 "
b110 %
b1111 .
b1111 -
b100000000 !
b0 5
b100000000 #
b10110000 *
b11 +
b10100000 0
b110 1
b0 2
b101110000 7
b111 8
b101 9
b1111 <
b101100000 ?
b110 @
b1100100 S
1P
#1890
0P
#1900
b101100000 "
b11 %
b1 .
b10 -
b100010000 !
b10 5
b1010100 S
b1111 A
b111 @
b101110000 ?
b0 <
b0 9
b110 8
b10100000 7
b11 1
b10110000 0
b110 +
b100000000 *
b100010000 #
1P
#1910
0P
#1920
b101110000 "
b1 &
b110 %
b1111 .
b1111 -
b101100000 !
b1 5
b101100000 #
b100010000 *
b11 +
b100000000 0
b110 1
b10110000 7
b11 8
b10 <
b10100000 ?
b110 @
b0 A
1P
#1930
0P
#1940
b10100000 "
b101 &
b111 %
b10 .
b1 -
b101110000 !
b10 5
b10001000 Q
b10 A
b11 @
b10110000 ?
b1 <
b110 8
b100000000 7
b11 1
b100010000 0
b1 ,
b110 +
b101100000 *
b101110000 #
1P
#1950
0P
