hardware/pipeline/sim/proc.vcd
$date
	Wed Mar 09 14:36:29 2022
$end
$version
	Icarus Verilog
$end
$timescale
	1s
$end
$scope module proc $end
$var wire 4 ! f_icode [3:0] $end
$upscope $end
$scope module proc $end
$var wire 4 " D_icode [3:0] $end
$upscope $end
$scope module proc $end
$var wire 4 # E_icode [3:0] $end
$upscope $end
$scope module proc $end
$var wire 4 $ M_icode [3:0] $end
$upscope $end
$scope module proc $end
$var wire 4 % W_icode [3:0] $end
$upscope $end
$scope module proc $end
$var reg 1 & clock $end
$upscope $end
$scope module proc $end
$var wire 64 ' rax [63:0] $end
$upscope $end
$scope module proc $end
$var wire 64 ( rcx [63:0] $end
$upscope $end
$scope module proc $end
$var wire 64 ) rdx [63:0] $end
$upscope $end
$scope module proc $end
$var wire 64 * rbx [63:0] $end
$upscope $end
$scope module proc $end
$var wire 64 + rsp [63:0] $end
$upscope $end
$scope module proc $end
$var wire 64 , rbp [63:0] $end
$upscope $end
$scope module proc $end
$var wire 64 - rsi [63:0] $end
$upscope $end
$scope module proc $end
$var wire 64 . rdi [63:0] $end
$upscope $end
$scope module proc $end
$var wire 64 / r8 [63:0] $end
$upscope $end
$scope module proc $end
$var wire 64 0 r9 [63:0] $end
$upscope $end
$scope module proc $end
$var wire 64 1 r10 [63:0] $end
$upscope $end
$scope module proc $end
$var wire 64 2 r11 [63:0] $end
$upscope $end
$scope module proc $end
$var wire 64 3 r12 [63:0] $end
$upscope $end
$scope module proc $end
$var wire 64 4 r13 [63:0] $end
$upscope $end
$scope module proc $end
$var wire 64 5 r14 [63:0] $end
$upscope $end
$enddefinitions $end
#0
$dumpvars
bx 5
bx 4
bx 3
bx 2
bx 1
bx 0
bx /
bx .
bx -
bx ,
bx +
bx *
bx )
bx (
bx '
1&
bx %
bx $
bx #
bx "
b11 !
$end
#10
0&
#20
b11 "
1&
#30
0&
#40
b110 !
b11 #
1&
#50
0&
#60
b11 !
b11 $
b110 "
1&
#70
0&
#80
b110 !
b11 "
b110 #
b11 %
1&
#90
0&
#100
b11 !
b0 '
b110 $
b11 #
b110 "
1&
#110
0&
#120
b110 !
b11 "
b110 #
b11 $
b110 %
b1 (
1&
#130
0&
#140
b111 !
b1 '
b11 %
b110 $
b11 #
b110 "
1&
#150
0&
#160
b110 !
b111 "
b110 #
b11 $
b110 %
b1 )
1&
#170
0&
#180
b11 !
b10 (
b11 %
b110 $
b111 #
b110 "
1&
#190
0&
#200
b110 !
b11 "
b110 #
b111 $
b110 %
b1100100 )
1&
#210
0&
#220
b11 !
b1100010 )
b111 %
b110 $
b11 #
b110 "
1&
#230
0&
#240
b110 !
b11 "
b110 #
b11 $
b110 %
1&
#250
0&
#260
b111 !
b11 '
b11 %
b110 $
b11 #
b110 "
1&
#270
0&
#280
b110 !
b111 "
b110 #
b11 $
b110 %
b1 )
1&
#290
0&
#300
b11 !
b11 (
b11 %
b110 $
b111 #
b110 "
1&
#310
0&
#320
b110 !
b11 "
b110 #
b111 $
b110 %
b1100100 )
1&
#330
0&
#340
b11 !
b1100001 )
b111 %
b110 $
b11 #
b110 "
1&
#350
0&
#360
b110 !
b11 "
b110 #
b11 $
b110 %
1&
#370
0&
#380
b111 !
b110 '
b11 %
b110 $
b11 #
b110 "
1&
#390
0&
#400
b110 !
b111 "
b110 #
b11 $
b110 %
b1 )
1&
#410
0&
#420
b11 !
b100 (
b11 %
b110 $
b111 #
b110 "
1&
#430
0&
#440
b110 !
b11 "
b110 #
b111 $
b110 %
b1100100 )
1&
#450
0&
#460
b11 !
b1100000 )
b111 %
b110 $
b11 #
b110 "
1&
#470
0&
#480
b110 !
b11 "
b110 #
b11 $
b110 %
1&
#490
0&
#500
b111 !
b1010 '
b11 %
b110 $
b11 #
b110 "
1&
#510
0&
#520
b110 !
b111 "
b110 #
b11 $
b110 %
b1 )
1&
#530
0&
#540
b11 !
b101 (
b11 %
b110 $
b111 #
b110 "
1&
#550
0&
#560
b110 !
b11 "
b110 #
b111 $
b110 %
b1100100 )
1&
#570
0&
#580
b11 !
b1011111 )
b111 %
b110 $
b11 #
b110 "
1&
#590
0&
#600
b110 !
b11 "
b110 #
b11 $
b110 %
1&
#610
0&
#620
b111 !
b1111 '
b11 %
b110 $
b11 #
b110 "
1&
#630
0&
#640
b110 !
b111 "
b110 #
b11 $
b110 %
b1 )
1&
#650
0&
#660
b11 !
b110 (
b11 %
b110 $
b111 #
b110 "
1&
#670
0&
#680
b110 !
b11 "
b110 #
b111 $
b110 %
b1100100 )
1&
#690
0&
#700
b11 !
b1011110 )
b111 %
b110 $
b11 #
b110 "
1&
#710
0&
#720
b110 !
b11 "
b110 #
b11 $
b110 %
1&
#730
0&
#740
b111 !
b10101 '
b11 %
b110 $
b11 #
b110 "
1&
#750
0&
#760
b110 !
b111 "
b110 #
b11 $
b110 %
b1 )
1&
#770
0&
#780
b11 !
b111 (
b11 %
b110 $
b111 #
b110 "
1&
#790
0&
#800
b110 !
b11 "
b110 #
b111 $
b110 %
b1100100 )
1&
#810
0&
#820
b11 !
b1011101 )
b111 %
b110 $
b11 #
b110 "
1&
#830
0&
#840
b110 !
b11 "
b110 #
b11 $
b110 %
1&
#850
0&
#860
b111 !
b11100 '
b11 %
b110 $
b11 #
b110 "
1&
#870
0&
#880
b110 !
b111 "
b110 #
b11 $
b110 %
b1 )
1&
#890
0&
#900
b11 !
b1000 (
b11 %
b110 $
b111 #
b110 "
1&
#910
0&
#920
b110 !
b11 "
b110 #
b111 $
b110 %
b1100100 )
1&
#930
0&
#940
b11 !
b1011100 )
b111 %
b110 $
b11 #
b110 "
1&
#950
0&
#960
b110 !
b11 "
b110 #
b11 $
b110 %
1&
#970
0&
#980
b111 !
b100100 '
b11 %
b110 $
b11 #
b110 "
1&
#990
0&
#1000
b110 !
b111 "
b110 #
b11 $
b110 %
b1 )
1&
#1010
0&
#1020
b11 !
b1001 (
b11 %
b110 $
b111 #
b110 "
1&
#1030
0&
#1040
b110 !
b11 "
b110 #
b111 $
b110 %
b1100100 )
1&
#1050
0&
#1060
b11 !
b1011011 )
b111 %
b110 $
b11 #
b110 "
1&
#1070
0&
#1080
b110 !
b11 "
b110 #
b11 $
b110 %
1&
#1090
0&
#1100
b111 !
b101101 '
b11 %
b110 $
b11 #
b110 "
1&
#1110
0&
#1120
b110 !
b111 "
b110 #
b11 $
b110 %
b1 )
1&
#1130
0&
#1140
b11 !
b1010 (
b11 %
b110 $
b111 #
b110 "
1&
#1150
0&
#1160
b110 !
b11 "
b110 #
b111 $
b110 %
b1100100 )
1&
#1170
0&
#1180
b11 !
b1011010 )
b111 %
b110 $
b11 #
b110 "
1&
#1190
0&
#1200
b110 !
b11 "
b110 #
b11 $
b110 %
1&
#1210
0&
#1220
b111 !
b110111 '
b11 %
b110 $
b11 #
b110 "
1&
#1230
0&
#1240
b110 !
b111 "
b110 #
b11 $
b110 %
b1 )
1&
#1250
0&
#1260
b11 !
b1011 (
b11 %
b110 $
b111 #
b110 "
1&
#1270
0&
#1280
b110 !
b11 "
b110 #
b111 $
b110 %
b1100100 )
1&
#1290
0&
#1300
b11 !
b1011001 )
b111 %
b110 $
b11 #
b110 "
1&
#1310
0&
#1320
b110 !
b11 "
b110 #
b11 $
b110 %
1&
#1330
0&
#1340
b111 !
b1000010 '
b11 %
b110 $
b11 #
b110 "
1&
#1350
0&
#1360
b110 !
b111 "
b110 #
b11 $
b110 %
b1 )
1&
#1370
0&
#1380
b11 !
b1100 (
b11 %
b110 $
b111 #
b110 "
1&
#1390
0&
#1400
b110 !
b11 "
b110 #
b111 $
b110 %
b1100100 )
1&
#1410
0&
#1420
b11 !
b1011000 )
b111 %
b110 $
b11 #
b110 "
1&
#1430
0&
#1440
b110 !
b11 "
b110 #
b11 $
b110 %
1&
#1450
0&
#1460
b111 !
b1001110 '
b11 %
b110 $
b11 #
b110 "
1&
#1470
0&
#1480
b110 !
b111 "
b110 #
b11 $
b110 %
b1 )
1&
#1490
0&
#1500
b11 !
b1101 (
b11 %
b110 $
b111 #
b110 "
1&
#1510
0&
#1520
b110 !
b11 "
b110 #
b111 $
b110 %
b1100100 )
1&
#1530
0&
#1540
b11 !
b1010111 )
b111 %
b110 $
b11 #
b110 "
1&
#1550
0&
#1560
b110 !
b11 "
b110 #
b11 $
b110 %
1&
#1570
0&
#1580
b111 !
b1011011 '
b11 %
b110 $
b11 #
b110 "
1&
#1590
0&
#1600
b110 !
b111 "
b110 #
b11 $
b110 %
b1 )
1&
#1610
0&
#1620
b11 !
b1110 (
b11 %
b110 $
b111 #
b110 "
1&
#1630
0&
#1640
b110 !
b11 "
b110 #
b111 $
b110 %
b1100100 )
1&
#1650
0&
#1660
b11 !
b1010110 )
b111 %
b110 $
b11 #
b110 "
1&
#1670
0&
#1680
b110 !
b11 "
b110 #
b11 $
b110 %
1&
#1690
0&
#1700
b111 !
b1101001 '
b11 %
b110 $
b11 #
b110 "
1&
#1710
0&
#1720
b110 !
b111 "
b110 #
b11 $
b110 %
b1 )
1&
#1730
0&
#1740
b11 !
b1111 (
b11 %
b110 $
b111 #
b110 "
1&
#1750
0&
#1760
b110 !
b11 "
b110 #
b111 $
b110 %
b1100100 )
1&
#1770
0&
#1780
b11 !
b1010101 )
b111 %
b110 $
b11 #
b110 "
1&
#1790
0&
#1800
b110 !
b11 "
b110 #
b11 $
b110 %
1&
#1810
0&
#1820
b111 !
b1111000 '
b11 %
b110 $
b11 #
b110 "
1&
#1830
0&
#1840
b110 !
b111 "
b110 #
b11 $
b110 %
b1 )
1&
#1850
0&
#1860
b11 !
b10000 (
b11 %
b110 $
b111 #
b110 "
1&
#1870
0&
#1880
b110 !
b11 "
b110 #
b111 $
b110 %
b1100100 )
1&
#1890
0&
#1900
b11 !
b1010100 )
b111 %
b110 $
b11 #
b110 "
1&
#1910
0&
#1920
b110 !
b11 "
b110 #
b11 $
b110 %
1&
#1930
0&
#1940
b111 !
b10001000 '
b11 %
b110 $
b11 #
b110 "
1&
#1950
0&
#1960
b110 !
b111 "
b110 #
b11 $
b110 %
b1 )
1&
#1970
0&
#1980
b11 !
b10001 (
b11 %
b110 $
b111 #
b110 "
1&
#1990
0&
#2000
b110 !
b11 "
b110 #
b111 $
b110 %
b1100100 )
1&
#2010
0&
#2020
b11 !
b1010011 )
b111 %
b110 $
b11 #
b110 "
1&
#2030
0&
#2040
b110 !
b11 "
b110 #
b11 $
b110 %
1&
#2050
0&
#2060
b111 !
b10011001 '
b11 %
b110 $
b11 #
b110 "
1&
#2070
0&
#2080
b110 !
b111 "
b110 #
b11 $
b110 %
b1 )
1&
#2090
0&
#2100
b11 !
b10010 (
b11 %
b110 $
b111 #
b110 "
1&
#2110
0&
#2120
b110 !
b11 "
b110 #
b111 $
b110 %
b1100100 )
1&
#2130
0&
#2140
b11 !
b1010010 )
b111 %
b110 $
b11 #
b110 "
1&
#2150
0&
#2160
b110 !
b11 "
b110 #
b11 $
b110 %
1&
#2170
0&
#2180
b111 !
b10101011 '
b11 %
b110 $
b11 #
b110 "
1&
#2190
0&
#2200
b110 !
b111 "
b110 #
b11 $
b110 %
b1 )
1&
#2210
0&
#2220
b11 !
b10011 (
b11 %
b110 $
b111 #
b110 "
1&
#2230
0&
#2240
b110 !
b11 "
b110 #
b111 $
b110 %
b1100100 )
1&
#2250
0&
#2260
b11 !
b1010001 )
b111 %
b110 $
b11 #
b110 "
1&
#2270
0&
#2280
b110 !
b11 "
b110 #
b11 $
b110 %
1&
#2290
0&
#2300
b111 !
b10111110 '
b11 %
b110 $
b11 #
b110 "
1&
#2310
0&
#2320
b110 !
b111 "
b110 #
b11 $
b110 %
b1 )
1&
#2330
0&
#2340
b11 !
b10100 (
b11 %
b110 $
b111 #
b110 "
1&
#2350
0&
#2360
b110 !
b11 "
b110 #
b111 $
b110 %
b1100100 )
1&
#2370
0&
#2380
b11 !
b1010000 )
b111 %
b110 $
b11 #
b110 "
1&
#2390
0&
#2400
b110 !
b11 "
b110 #
b11 $
b110 %
1&
#2410
0&
#2420
b111 !
b11010010 '
b11 %
b110 $
b11 #
b110 "
1&
#2430
0&
#2440
b110 !
b111 "
b110 #
b11 $
b110 %
b1 )
1&
#2450
0&
#2460
b11 !
b10101 (
b11 %
b110 $
b111 #
b110 "
1&
#2470
0&
#2480
b110 !
b11 "
b110 #
b111 $
b110 %
b1100100 )
1&
#2490
0&
#2500
b11 !
b1001111 )
b111 %
b110 $
b11 #
b110 "
1&
#2510
0&
#2520
b110 !
b11 "
b110 #
b11 $
b110 %
1&
#2530
0&
#2540
b111 !
b11100111 '
b11 %
b110 $
b11 #
b110 "
1&
#2550
0&
#2560
b110 !
b111 "
b110 #
b11 $
b110 %
b1 )
1&
#2570
0&
#2580
b11 !
b10110 (
b11 %
b110 $
b111 #
b110 "
1&
#2590
0&
#2600
b110 !
b11 "
b110 #
b111 $
b110 %
b1100100 )
1&
#2610
0&
#2620
b11 !
b1001110 )
b111 %
b110 $
b11 #
b110 "
1&
#2630
0&
#2640
b110 !
b11 "
b110 #
b11 $
b110 %
1&
#2650
0&
#2660
b111 !
b11111101 '
b11 %
b110 $
b11 #
b110 "
1&
#2670
0&
#2680
b110 !
b111 "
b110 #
b11 $
b110 %
b1 )
1&
#2690
0&
#2700
b11 !
b10111 (
b11 %
b110 $
b111 #
b110 "
1&
#2710
0&
#2720
b110 !
b11 "
b110 #
b111 $
b110 %
b1100100 )
1&
#2730
0&
#2740
b11 !
b1001101 )
b111 %
b110 $
b11 #
b110 "
1&
#2750
0&
#2760
b110 !
b11 "
b110 #
b11 $
b110 %
1&
#2770
0&
#2780
b111 !
b100010100 '
b11 %
b110 $
b11 #
b110 "
1&
#2790
0&
#2800
b110 !
b111 "
b110 #
b11 $
b110 %
b1 )
1&
#2810
0&
#2820
b11 !
b11000 (
b11 %
b110 $
b111 #
b110 "
1&
#2830
0&
#2840
b110 !
b11 "
b110 #
b111 $
b110 %
b1100100 )
1&
#2850
0&
#2860
b11 !
b1001100 )
b111 %
b110 $
b11 #
b110 "
1&
#2870
0&
#2880
b110 !
b11 "
b110 #
b11 $
b110 %
1&
#2890
0&
#2900
b111 !
b100101100 '
b11 %
b110 $
b11 #
b110 "
1&
#2910
0&
#2920
b110 !
b111 "
b110 #
b11 $
b110 %
b1 )
1&
#2930
0&
#2940
b11 !
b11001 (
b11 %
b110 $
b111 #
b110 "
1&
#2950
0&
#2960
b110 !
b11 "
b110 #
b111 $
b110 %
b1100100 )
1&
#2970
0&
#2980
b11 !
b1001011 )
b111 %
b110 $
b11 #
b110 "
1&
#2990
0&
#3000
b110 !
b11 "
b110 #
b11 $
b110 %
1&
#3010
0&
#3020
b111 !
b101000101 '
b11 %
b110 $
b11 #
b110 "
1&
#3030
0&
#3040
b110 !
b111 "
b110 #
b11 $
b110 %
b1 )
1&
#3050
0&
#3060
b11 !
b11010 (
b11 %
b110 $
b111 #
b110 "
1&
#3070
0&
#3080
b110 !
b11 "
b110 #
b111 $
b110 %
b1100100 )
1&
#3090
0&
#3100
b11 !
b1001010 )
b111 %
b110 $
b11 #
b110 "
1&
#3110
0&
#3120
b110 !
b11 "
b110 #
b11 $
b110 %
1&
#3130
0&
#3140
b111 !
b101011111 '
b11 %
b110 $
b11 #
b110 "
1&
#3150
0&
#3160
b110 !
b111 "
b110 #
b11 $
b110 %
b1 )
1&
#3170
0&
#3180
b11 !
b11011 (
b11 %
b110 $
b111 #
b110 "
1&
#3190
0&
#3200
b110 !
b11 "
b110 #
b111 $
b110 %
b1100100 )
1&
#3210
0&
#3220
b11 !
b1001001 )
b111 %
b110 $
b11 #
b110 "
1&
#3230
0&
#3240
b110 !
b11 "
b110 #
b11 $
b110 %
1&
#3250
0&
#3260
b111 !
b101111010 '
b11 %
b110 $
b11 #
b110 "
1&
#3270
0&
#3280
b110 !
b111 "
b110 #
b11 $
b110 %
b1 )
1&
#3290
0&
#3300
b11 !
b11100 (
b11 %
b110 $
b111 #
b110 "
1&
#3310
0&
#3320
b110 !
b11 "
b110 #
b111 $
b110 %
b1100100 )
1&
#3330
0&
#3340
b11 !
b1001000 )
b111 %
b110 $
b11 #
b110 "
1&
#3350
0&
#3360
b110 !
b11 "
b110 #
b11 $
b110 %
1&
#3370
0&
#3380
b111 !
b110010110 '
b11 %
b110 $
b11 #
b110 "
1&
#3390
0&
#3400
b110 !
b111 "
b110 #
b11 $
b110 %
b1 )
1&
#3410
0&
#3420
b11 !
b11101 (
b11 %
b110 $
b111 #
b110 "
1&
#3430
0&
#3440
b110 !
b11 "
b110 #
b111 $
b110 %
b1100100 )
1&
#3450
0&
#3460
b11 !
b1000111 )
b111 %
b110 $
b11 #
b110 "
1&
#3470
0&
#3480
b110 !
b11 "
b110 #
b11 $
b110 %
1&
#3490
0&
#3500
b111 !
b110110011 '
b11 %
b110 $
b11 #
b110 "
1&
#3510
0&
#3520
b110 !
b111 "
b110 #
b11 $
b110 %
b1 )
1&
#3530
0&
#3540
b11 !
b11110 (
b11 %
b110 $
b111 #
b110 "
1&
#3550
0&
#3560
b110 !
b11 "
b110 #
b111 $
b110 %
b1100100 )
1&
#3570
0&
#3580
b11 !
b1000110 )
b111 %
b110 $
b11 #
b110 "
1&
#3590
0&
#3600
b110 !
b11 "
b110 #
b11 $
b110 %
1&
#3610
0&
#3620
b111 !
b111010001 '
b11 %
b110 $
b11 #
b110 "
1&
#3630
0&
#3640
b110 !
b111 "
b110 #
b11 $
b110 %
b1 )
1&
#3650
0&
#3660
b11 !
b11111 (
b11 %
b110 $
b111 #
b110 "
1&
#3670
0&
#3680
b110 !
b11 "
b110 #
b111 $
b110 %
b1100100 )
1&
#3690
0&
#3700
b11 !
b1000101 )
b111 %
b110 $
b11 #
b110 "
1&
#3710
0&
#3720
b110 !
b11 "
b110 #
b11 $
b110 %
1&
#3730
0&
#3740
b111 !
b111110000 '
b11 %
b110 $
b11 #
b110 "
1&
#3750
0&
#3760
b110 !
b111 "
b110 #
b11 $
b110 %
b1 )
1&
#3770
0&
#3780
b11 !
b100000 (
b11 %
b110 $
b111 #
b110 "
1&
#3790
0&
#3800
b110 !
b11 "
b110 #
b111 $
b110 %
b1100100 )
1&
#3810
0&
#3820
b11 !
b1000100 )
b111 %
b110 $
b11 #
b110 "
1&
#3830
0&
#3840
b110 !
b11 "
b110 #
b11 $
b110 %
1&
#3850
0&
#3860
b111 !
b1000010000 '
b11 %
b110 $
b11 #
b110 "
1&
#3870
0&
#3880
b110 !
b111 "
b110 #
b11 $
b110 %
b1 )
1&
#3890
0&
#3900
b11 !
b100001 (
b11 %
b110 $
b111 #
b110 "
1&
#3910
0&
#3920
b110 !
b11 "
b110 #
b111 $
b110 %
b1100100 )
1&
#3930
0&
#3940
b11 !
b1000011 )
b111 %
b110 $
b11 #
b110 "
1&
#3950
0&
#3960
b110 !
b11 "
b110 #
b11 $
b110 %
1&
#3970
0&
#3980
b111 !
b1000110001 '
b11 %
b110 $
b11 #
b110 "
1&
#3990
0&
#4000
b110 !
b111 "
b110 #
b11 $
b110 %
b1 )
1&
#4010
0&
#4020
b11 !
b100010 (
b11 %
b110 $
b111 #
b110 "
1&
#4030
0&
#4040
b110 !
b11 "
b110 #
b111 $
b110 %
b1100100 )
1&
#4050
0&
#4060
b11 !
b1000010 )
b111 %
b110 $
b11 #
b110 "
1&
#4070
0&
#4080
b110 !
b11 "
b110 #
b11 $
b110 %
1&
#4090
0&
#4100
b111 !
b1001010011 '
b11 %
b110 $
b11 #
b110 "
1&
#4110
0&
#4120
b110 !
b111 "
b110 #
b11 $
b110 %
b1 )
1&
#4130
0&
#4140
b11 !
b100011 (
b11 %
b110 $
b111 #
b110 "
1&
#4150
0&
#4160
b110 !
b11 "
b110 #
b111 $
b110 %
b1100100 )
1&
#4170
0&
#4180
b11 !
b1000001 )
b111 %
b110 $
b11 #
b110 "
1&
#4190
0&
#4200
b110 !
b11 "
b110 #
b11 $
b110 %
1&
#4210
0&
#4220
b111 !
b1001110110 '
b11 %
b110 $
b11 #
b110 "
1&
#4230
0&
#4240
b110 !
b111 "
b110 #
b11 $
b110 %
b1 )
1&
#4250
0&
#4260
b11 !
b100100 (
b11 %
b110 $
b111 #
b110 "
1&
#4270
0&
#4280
b110 !
b11 "
b110 #
b111 $
b110 %
b1100100 )
1&
#4290
0&
#4300
b11 !
b1000000 )
b111 %
b110 $
b11 #
b110 "
1&
#4310
0&
#4320
b110 !
b11 "
b110 #
b11 $
b110 %
1&
#4330
0&
#4340
b111 !
b1010011010 '
b11 %
b110 $
b11 #
b110 "
1&
#4350
0&
#4360
b110 !
b111 "
b110 #
b11 $
b110 %
b1 )
1&
#4370
0&
#4380
b11 !
b100101 (
b11 %
b110 $
b111 #
b110 "
1&
#4390
0&
#4400
b110 !
b11 "
b110 #
b111 $
b110 %
b1100100 )
1&
#4410
0&
#4420
b11 !
b111111 )
b111 %
b110 $
b11 #
b110 "
1&
#4430
0&
#4440
b110 !
b11 "
b110 #
b11 $
b110 %
1&
#4450
0&
#4460
b111 !
b1010111111 '
b11 %
b110 $
b11 #
b110 "
1&
#4470
0&
#4480
b110 !
b111 "
b110 #
b11 $
b110 %
b1 )
1&
#4490
0&
#4500
b11 !
b100110 (
b11 %
b110 $
b111 #
b110 "
1&
#4510
0&
#4520
b110 !
b11 "
b110 #
b111 $
b110 %
b1100100 )
1&
#4530
0&
#4540
b11 !
b111110 )
b111 %
b110 $
b11 #
b110 "
1&
#4550
0&
#4560
b110 !
b11 "
b110 #
b11 $
b110 %
1&
#4570
0&
#4580
b111 !
b1011100101 '
b11 %
b110 $
b11 #
b110 "
1&
#4590
0&
#4600
b110 !
b111 "
b110 #
b11 $
b110 %
b1 )
1&
#4610
0&
#4620
b11 !
b100111 (
b11 %
b110 $
b111 #
b110 "
1&
#4630
0&
#4640
b110 !
b11 "
b110 #
b111 $
b110 %
b1100100 )
1&
#4650
0&
#4660
b11 !
b111101 )
b111 %
b110 $
b11 #
b110 "
1&
#4670
0&
#4680
b110 !
b11 "
b110 #
b11 $
b110 %
1&
#4690
0&
#4700
b111 !
b1100001100 '
b11 %
b110 $
b11 #
b110 "
1&
#4710
0&
#4720
b110 !
b111 "
b110 #
b11 $
b110 %
b1 )
1&
#4730
0&
#4740
b11 !
b101000 (
b11 %
b110 $
b111 #
b110 "
1&
#4750
0&
#4760
b110 !
b11 "
b110 #
b111 $
b110 %
b1100100 )
1&
#4770
0&
#4780
b11 !
b111100 )
b111 %
b110 $
b11 #
b110 "
1&
#4790
0&
#4800
b110 !
b11 "
b110 #
b11 $
b110 %
1&
#4810
0&
#4820
b111 !
b1100110100 '
b11 %
b110 $
b11 #
b110 "
1&
#4830
0&
#4840
b110 !
b111 "
b110 #
b11 $
b110 %
b1 )
1&
#4850
0&
#4860
b11 !
b101001 (
b11 %
b110 $
b111 #
b110 "
1&
#4870
0&
#4880
b110 !
b11 "
b110 #
b111 $
b110 %
b1100100 )
1&
#4890
0&
#4900
b11 !
b111011 )
b111 %
b110 $
b11 #
b110 "
1&
#4910
0&
#4920
b110 !
b11 "
b110 #
b11 $
b110 %
1&
#4930
0&
#4940
b111 !
b1101011101 '
b11 %
b110 $
b11 #
b110 "
1&
#4950
0&
#4960
b110 !
b111 "
b110 #
b11 $
b110 %
b1 )
1&
#4970
0&
#4980
b11 !
b101010 (
b11 %
b110 $
b111 #
b110 "
1&
#4990
0&
#5000
b110 !
b11 "
b110 #
b111 $
b110 %
b1100100 )
1&
#5010
0&
#5020
b11 !
b111010 )
b111 %
b110 $
b11 #
b110 "
1&
#5030
0&
#5040
b110 !
b11 "
b110 #
b11 $
b110 %
1&
#5050
0&
#5060
b111 !
b1110000111 '
b11 %
b110 $
b11 #
b110 "
1&
#5070
0&
#5080
b110 !
b111 "
b110 #
b11 $
b110 %
b1 )
1&
#5090
0&
#5100
b11 !
b101011 (
b11 %
b110 $
b111 #
b110 "
1&
#5110
0&
#5120
b110 !
b11 "
b110 #
b111 $
b110 %
b1100100 )
1&
#5130
0&
#5140
b11 !
b111001 )
b111 %
b110 $
b11 #
b110 "
1&
#5150
0&
#5160
b110 !
b11 "
b110 #
b11 $
b110 %
1&
#5170
0&
#5180
b111 !
b1110110010 '
b11 %
b110 $
b11 #
b110 "
1&
#5190
0&
#5200
b110 !
b111 "
b110 #
b11 $
b110 %
b1 )
1&
#5210
0&
#5220
b11 !
b101100 (
b11 %
b110 $
b111 #
b110 "
1&
#5230
0&
#5240
b110 !
b11 "
b110 #
b111 $
b110 %
b1100100 )
1&
#5250
0&
#5260
b11 !
b111000 )
b111 %
b110 $
b11 #
b110 "
1&
#5270
0&
#5280
b110 !
b11 "
b110 #
b11 $
b110 %
1&
#5290
0&
#5300
b111 !
b1111011110 '
b11 %
b110 $
b11 #
b110 "
1&
#5310
0&
#5320
b110 !
b111 "
b110 #
b11 $
b110 %
b1 )
1&
#5330
0&
#5340
b11 !
b101101 (
b11 %
b110 $
b111 #
b110 "
1&
#5350
0&
#5360
b110 !
b11 "
b110 #
b111 $
b110 %
b1100100 )
1&
#5370
0&
#5380
b11 !
b110111 )
b111 %
b110 $
b11 #
b110 "
1&
#5390
0&
#5400
b110 !
b11 "
b110 #
b11 $
b110 %
1&
#5410
0&
#5420
b111 !
b10000001011 '
b11 %
b110 $
b11 #
b110 "
1&
#5430
0&
#5440
b110 !
b111 "
b110 #
b11 $
b110 %
b1 )
1&
#5450
0&
#5460
b11 !
b101110 (
b11 %
b110 $
b111 #
b110 "
1&
#5470
0&
#5480
b110 !
b11 "
b110 #
b111 $
b110 %
b1100100 )
1&
#5490
0&
#5500
b11 !
b110110 )
b111 %
b110 $
b11 #
b110 "
1&
#5510
0&
#5520
b110 !
b11 "
b110 #
b11 $
b110 %
1&
#5530
0&
#5540
b111 !
b10000111001 '
b11 %
b110 $
b11 #
b110 "
1&
#5550
0&
#5560
b110 !
b111 "
b110 #
b11 $
b110 %
b1 )
1&
#5570
0&
#5580
b11 !
b101111 (
b11 %
b110 $
b111 #
b110 "
1&
#5590
0&
#5600
b110 !
b11 "
b110 #
b111 $
b110 %
b1100100 )
1&
#5610
0&
#5620
b11 !
b110101 )
b111 %
b110 $
b11 #
b110 "
1&
#5630
0&
#5640
b110 !
b11 "
b110 #
b11 $
b110 %
1&
#5650
0&
#5660
b111 !
b10001101000 '
b11 %
b110 $
b11 #
b110 "
1&
#5670
0&
#5680
b110 !
b111 "
b110 #
b11 $
b110 %
b1 )
1&
#5690
0&
#5700
b11 !
b110000 (
b11 %
b110 $
b111 #
b110 "
1&
#5710
0&
#5720
b110 !
b11 "
b110 #
b111 $
b110 %
b1100100 )
1&
#5730
0&
#5740
b11 !
b110100 )
b111 %
b110 $
b11 #
b110 "
1&
#5750
0&
#5760
b110 !
b11 "
b110 #
b11 $
b110 %
1&
#5770
0&
#5780
b111 !
b10010011000 '
b11 %
b110 $
b11 #
b110 "
1&
#5790
0&
#5800
b110 !
b111 "
b110 #
b11 $
b110 %
b1 )
1&
#5810
0&
#5820
b11 !
b110001 (
b11 %
b110 $
b111 #
b110 "
1&
#5830
0&
#5840
b110 !
b11 "
b110 #
b111 $
b110 %
b1100100 )
1&
#5850
0&
#5860
b11 !
b110011 )
b111 %
b110 $
b11 #
b110 "
1&
#5870
0&
#5880
b110 !
b11 "
b110 #
b11 $
b110 %
1&
#5890
0&
#5900
b111 !
b10011001001 '
b11 %
b110 $
b11 #
b110 "
1&
#5910
0&
#5920
b110 !
b111 "
b110 #
b11 $
b110 %
b1 )
1&
#5930
0&
#5940
b11 !
b110010 (
b11 %
b110 $
b111 #
b110 "
1&
#5950
0&
#5960
b110 !
b11 "
b110 #
b111 $
b110 %
b1100100 )
1&
#5970
0&
#5980
b11 !
b110010 )
b111 %
b110 $
b11 #
b110 "
1&
#5990
0&
#6000
b110 !
b11 "
b110 #
b11 $
b110 %
1&
#6010
0&
#6020
b111 !
b10011111011 '
b11 %
b110 $
b11 #
b110 "
1&
#6030
0&
#6040
b110 !
b111 "
b110 #
b11 $
b110 %
b1 )
1&
#6050
0&
#6060
b11 !
b110011 (
b11 %
b110 $
b111 #
b110 "
1&
#6070
0&
#6080
b110 !
b11 "
b110 #
b111 $
b110 %
b1100100 )
1&
#6090
0&
#6100
b11 !
b110001 )
b111 %
b110 $
b11 #
b110 "
1&
#6110
0&
#6120
b110 !
b11 "
b110 #
b11 $
b110 %
1&
#6130
0&
#6140
b111 !
b10100101110 '
b11 %
b110 $
b11 #
b110 "
1&
#6150
0&
#6160
b110 !
b111 "
b110 #
b11 $
b110 %
b1 )
1&
#6170
0&
#6180
b11 !
b110100 (
b11 %
b110 $
b111 #
b110 "
1&
#6190
0&
#6200
b110 !
b11 "
b110 #
b111 $
b110 %
b1100100 )
1&
#6210
0&
#6220
b11 !
b110000 )
b111 %
b110 $
b11 #
b110 "
1&
#6230
0&
#6240
b110 !
b11 "
b110 #
b11 $
b110 %
1&
#6250
0&
#6260
b111 !
b10101100010 '
b11 %
b110 $
b11 #
b110 "
1&
#6270
0&
#6280
b110 !
b111 "
b110 #
b11 $
b110 %
b1 )
1&
#6290
0&
#6300
b11 !
b110101 (
b11 %
b110 $
b111 #
b110 "
1&
#6310
0&
#6320
b110 !
b11 "
b110 #
b111 $
b110 %
b1100100 )
1&
#6330
0&
#6340
b11 !
b101111 )
b111 %
b110 $
b11 #
b110 "
1&
#6350
0&
#6360
b110 !
b11 "
b110 #
b11 $
b110 %
1&
#6370
0&
#6380
b111 !
b10110010111 '
b11 %
b110 $
b11 #
b110 "
1&
#6390
0&
#6400
b110 !
b111 "
b110 #
b11 $
b110 %
b1 )
1&
#6410
0&
#6420
b11 !
b110110 (
b11 %
b110 $
b111 #
b110 "
1&
#6430
0&
